<?xml version="1.0" encoding="utf-8"?>
<!DOCTYPE eagle SYSTEM "eagle.dtd">
<eagle version="7.2.0">
<drawing>
<settings>
<setting alwaysvectorfont="no"/>
<setting verticaltext="up"/>
</settings>
<grid distance="0.05" unitdist="mm" unit="mm" style="lines" multiple="1" display="no" altdistance="0.025" altunitdist="inch" altunit="inch"/>
<layers>
<layer number="1" name="Top" color="4" fill="1" visible="yes" active="yes"/>
<layer number="2" name="Route2" color="1" fill="3" visible="no" active="no"/>
<layer number="3" name="Route3" color="4" fill="3" visible="no" active="no"/>
<layer number="4" name="Route4" color="1" fill="4" visible="no" active="no"/>
<layer number="5" name="Route5" color="4" fill="4" visible="no" active="no"/>
<layer number="6" name="Route6" color="1" fill="8" visible="no" active="no"/>
<layer number="7" name="Route7" color="4" fill="8" visible="no" active="no"/>
<layer number="8" name="Route8" color="1" fill="2" visible="no" active="no"/>
<layer number="9" name="Route9" color="4" fill="2" visible="no" active="no"/>
<layer number="10" name="Route10" color="1" fill="7" visible="no" active="no"/>
<layer number="11" name="Route11" color="4" fill="7" visible="no" active="no"/>
<layer number="12" name="Route12" color="1" fill="5" visible="no" active="no"/>
<layer number="13" name="Route13" color="4" fill="5" visible="no" active="no"/>
<layer number="14" name="Route14" color="1" fill="6" visible="no" active="no"/>
<layer number="15" name="Route15" color="4" fill="6" visible="no" active="no"/>
<layer number="16" name="Bottom" color="1" fill="1" visible="yes" active="yes"/>
<layer number="17" name="Pads" color="2" fill="1" visible="yes" active="yes"/>
<layer number="18" name="Vias" color="2" fill="1" visible="yes" active="yes"/>
<layer number="19" name="Unrouted" color="6" fill="1" visible="yes" active="yes"/>
<layer number="20" name="Dimension" color="15" fill="1" visible="yes" active="yes"/>
<layer number="21" name="tPlace" color="7" fill="1" visible="yes" active="yes"/>
<layer number="22" name="bPlace" color="7" fill="1" visible="yes" active="yes"/>
<layer number="23" name="tOrigins" color="15" fill="1" visible="yes" active="yes"/>
<layer number="24" name="bOrigins" color="15" fill="1" visible="yes" active="yes"/>
<layer number="25" name="tNames" color="7" fill="1" visible="no" active="yes"/>
<layer number="26" name="bNames" color="7" fill="1" visible="no" active="yes"/>
<layer number="27" name="tValues" color="7" fill="1" visible="no" active="yes"/>
<layer number="28" name="bValues" color="7" fill="1" visible="no" active="yes"/>
<layer number="29" name="tStop" color="7" fill="3" visible="no" active="yes"/>
<layer number="30" name="bStop" color="7" fill="6" visible="no" active="yes"/>
<layer number="31" name="tCream" color="7" fill="4" visible="no" active="yes"/>
<layer number="32" name="bCream" color="7" fill="5" visible="no" active="yes"/>
<layer number="33" name="tFinish" color="6" fill="3" visible="no" active="yes"/>
<layer number="34" name="bFinish" color="6" fill="6" visible="no" active="yes"/>
<layer number="35" name="tGlue" color="7" fill="4" visible="no" active="yes"/>
<layer number="36" name="bGlue" color="7" fill="5" visible="no" active="yes"/>
<layer number="37" name="tTest" color="7" fill="1" visible="no" active="yes"/>
<layer number="38" name="bTest" color="7" fill="1" visible="no" active="yes"/>
<layer number="39" name="tKeepout" color="4" fill="11" visible="yes" active="yes"/>
<layer number="40" name="bKeepout" color="1" fill="11" visible="yes" active="yes"/>
<layer number="41" name="tRestrict" color="4" fill="10" visible="yes" active="yes"/>
<layer number="42" name="bRestrict" color="1" fill="10" visible="yes" active="yes"/>
<layer number="43" name="vRestrict" color="2" fill="10" visible="yes" active="yes"/>
<layer number="44" name="Drills" color="7" fill="1" visible="no" active="yes"/>
<layer number="45" name="Holes" color="7" fill="1" visible="no" active="yes"/>
<layer number="46" name="Milling" color="3" fill="1" visible="no" active="yes"/>
<layer number="47" name="Measures" color="7" fill="1" visible="no" active="yes"/>
<layer number="48" name="Document" color="7" fill="1" visible="yes" active="yes"/>
<layer number="49" name="Reference" color="7" fill="1" visible="yes" active="yes"/>
<layer number="50" name="dxf" color="7" fill="1" visible="no" active="no"/>
<layer number="51" name="tDocu" color="7" fill="1" visible="yes" active="yes"/>
<layer number="52" name="bDocu" color="7" fill="1" visible="yes" active="yes"/>
<layer number="53" name="tGND_GNDA" color="7" fill="9" visible="no" active="no"/>
<layer number="54" name="bGND_GNDA" color="1" fill="9" visible="no" active="no"/>
<layer number="56" name="wert" color="7" fill="1" visible="no" active="no"/>
<layer number="57" name="tCAD" color="7" fill="1" visible="no" active="no"/>
<layer number="59" name="tCarbon" color="7" fill="1" visible="no" active="no"/>
<layer number="60" name="bCarbon" color="7" fill="1" visible="no" active="no"/>
<layer number="90" name="Modules" color="5" fill="1" visible="no" active="no"/>
<layer number="91" name="Nets" color="2" fill="1" visible="no" active="no"/>
<layer number="92" name="Busses" color="1" fill="1" visible="no" active="no"/>
<layer number="93" name="Pins" color="2" fill="1" visible="no" active="no"/>
<layer number="94" name="Symbols" color="4" fill="1" visible="no" active="no"/>
<layer number="95" name="Names" color="7" fill="1" visible="no" active="no"/>
<layer number="96" name="Values" color="7" fill="1" visible="no" active="no"/>
<layer number="97" name="Info" color="7" fill="1" visible="no" active="no"/>
<layer number="98" name="Guide" color="6" fill="1" visible="no" active="no"/>
<layer number="99" name="SpiceOrder" color="5" fill="1" visible="no" active="no"/>
<layer number="100" name="Muster" color="7" fill="1" visible="no" active="no"/>
<layer number="101" name="Patch_Top" color="7" fill="1" visible="no" active="no"/>
<layer number="102" name="Vscore" color="7" fill="1" visible="no" active="no"/>
<layer number="103" name="tMap" color="7" fill="1" visible="no" active="no"/>
<layer number="104" name="Name" color="7" fill="1" visible="no" active="no"/>
<layer number="105" name="tPlate" color="7" fill="1" visible="no" active="no"/>
<layer number="106" name="bPlate" color="7" fill="1" visible="no" active="no"/>
<layer number="107" name="Crop" color="7" fill="1" visible="no" active="no"/>
<layer number="108" name="fp8" color="7" fill="1" visible="no" active="no"/>
<layer number="109" name="fp9" color="7" fill="1" visible="no" active="no"/>
<layer number="110" name="110" color="7" fill="1" visible="no" active="no"/>
<layer number="111" name="111" color="7" fill="1" visible="no" active="no"/>
<layer number="112" name="tSilk" color="7" fill="1" visible="no" active="no"/>
<layer number="113" name="IDFDebug" color="7" fill="1" visible="no" active="no"/>
<layer number="114" name="FRNTMAAT1" color="7" fill="1" visible="no" active="yes"/>
<layer number="115" name="FRNTMAAT2" color="7" fill="1" visible="no" active="yes"/>
<layer number="116" name="Patch_BOT" color="7" fill="1" visible="no" active="no"/>
<layer number="117" name="BACKMAAT1" color="7" fill="1" visible="no" active="yes"/>
<layer number="118" name="Rect_Pads" color="7" fill="1" visible="no" active="no"/>
<layer number="119" name="KAP_TEKEN" color="7" fill="1" visible="no" active="yes"/>
<layer number="120" name="KAP_MAAT1" color="7" fill="1" visible="no" active="yes"/>
<layer number="121" name="_tsilk" color="7" fill="1" visible="no" active="no"/>
<layer number="122" name="_bsilk" color="7" fill="1" visible="no" active="no"/>
<layer number="123" name="tTestmark" color="7" fill="1" visible="no" active="no"/>
<layer number="124" name="bTestmark" color="7" fill="1" visible="no" active="no"/>
<layer number="125" name="_tNames" color="7" fill="1" visible="no" active="no"/>
<layer number="126" name="_bNames" color="7" fill="1" visible="no" active="no"/>
<layer number="127" name="_tValues" color="7" fill="1" visible="no" active="no"/>
<layer number="128" name="_bValues" color="7" fill="1" visible="no" active="no"/>
<layer number="129" name="top_silk" color="7" fill="1" visible="yes" active="yes"/>
<layer number="130" name="SMDSTROOK" color="7" fill="1" visible="no" active="yes"/>
<layer number="131" name="tAdjust" color="7" fill="1" visible="no" active="no"/>
<layer number="132" name="bAdjust" color="7" fill="1" visible="no" active="no"/>
<layer number="133" name="bottom_silk" color="7" fill="1" visible="yes" active="yes"/>
<layer number="144" name="DrillLegend" color="7" fill="1" visible="no" active="no"/>
<layer number="150" name="Notes" color="7" fill="1" visible="no" active="yes"/>
<layer number="151" name="HeatSink" color="14" fill="1" visible="no" active="no"/>
<layer number="152" name="_bDocu" color="7" fill="1" visible="no" active="no"/>
<layer number="153" name="FabDoc1" color="6" fill="1" visible="no" active="no"/>
<layer number="154" name="FabDoc2" color="2" fill="1" visible="no" active="no"/>
<layer number="155" name="FabDoc3" color="7" fill="15" visible="no" active="no"/>
<layer number="199" name="Contour" color="7" fill="1" visible="no" active="no"/>
<layer number="200" name="200bmp" color="1" fill="10" visible="no" active="no"/>
<layer number="201" name="201bmp" color="2" fill="1" visible="no" active="no"/>
<layer number="202" name="202bmp" color="3" fill="1" visible="no" active="no"/>
<layer number="203" name="203bmp" color="4" fill="10" visible="no" active="no"/>
<layer number="204" name="204bmp" color="5" fill="10" visible="no" active="no"/>
<layer number="205" name="205bmp" color="6" fill="10" visible="no" active="no"/>
<layer number="206" name="206bmp" color="7" fill="10" visible="no" active="no"/>
<layer number="207" name="207bmp" color="15" fill="10" visible="no" active="no"/>
<layer number="208" name="208bmp" color="7" fill="1" visible="no" active="no"/>
<layer number="209" name="209bmp" color="7" fill="1" visible="no" active="no"/>
<layer number="210" name="210bmp" color="7" fill="1" visible="no" active="no"/>
<layer number="211" name="211bmp" color="7" fill="1" visible="no" active="no"/>
<layer number="212" name="212bmp" color="7" fill="1" visible="no" active="no"/>
<layer number="213" name="213bmp" color="7" fill="1" visible="no" active="no"/>
<layer number="214" name="214bmp" color="7" fill="1" visible="no" active="no"/>
<layer number="215" name="215bmp" color="7" fill="1" visible="no" active="no"/>
<layer number="216" name="216bmp" color="7" fill="1" visible="no" active="no"/>
<layer number="217" name="217bmp" color="18" fill="1" visible="no" active="no"/>
<layer number="218" name="218bmp" color="19" fill="1" visible="no" active="no"/>
<layer number="219" name="219bmp" color="20" fill="1" visible="no" active="no"/>
<layer number="220" name="220bmp" color="21" fill="1" visible="no" active="no"/>
<layer number="221" name="221bmp" color="22" fill="1" visible="no" active="no"/>
<layer number="222" name="222bmp" color="23" fill="1" visible="no" active="no"/>
<layer number="223" name="223bmp" color="24" fill="1" visible="no" active="no"/>
<layer number="224" name="224bmp" color="25" fill="1" visible="no" active="no"/>
<layer number="225" name="225bmp" color="7" fill="1" visible="no" active="no"/>
<layer number="226" name="226bmp" color="7" fill="1" visible="no" active="no"/>
<layer number="227" name="227bmp" color="7" fill="1" visible="no" active="no"/>
<layer number="228" name="228bmp" color="7" fill="1" visible="no" active="no"/>
<layer number="229" name="229bmp" color="7" fill="1" visible="no" active="yes"/>
<layer number="230" name="230bmp" color="7" fill="1" visible="no" active="no"/>
<layer number="231" name="Eagle3D_PG1" color="7" fill="1" visible="no" active="yes"/>
<layer number="232" name="Eagle3D_PG2" color="7" fill="1" visible="no" active="yes"/>
<layer number="233" name="Eagle3D_PG3" color="7" fill="1" visible="no" active="yes"/>
<layer number="248" name="Housing" color="7" fill="1" visible="no" active="no"/>
<layer number="249" name="Edge" color="7" fill="1" visible="no" active="no"/>
<layer number="250" name="Descript" color="3" fill="1" visible="no" active="no"/>
<layer number="251" name="SMDround" color="12" fill="11" visible="no" active="no"/>
<layer number="254" name="OrgLBR" color="13" fill="1" visible="no" active="no"/>
<layer number="255" name="Accent" color="7" fill="1" visible="no" active="yes"/>
</layers>
<board>
<plain>
<circle x="0" y="0" radius="15" width="0.254" layer="20"/>
</plain>
<libraries>
<library name="testpad">
<description>&lt;b&gt;Test Pins/Pads&lt;/b&gt;&lt;p&gt;
Cream on SMD OFF.&lt;br&gt;
new: Attribute TP_SIGNAL_NAME&lt;br&gt;
&lt;author&gt;Created by librarian@cadsoft.de&lt;/author&gt;</description>
<packages>
<package name="TP20R">
<description>&lt;b&gt;TEST PAD&lt;/b&gt;</description>
<smd name="TP" x="0" y="0" dx="2" dy="2" layer="1" roundness="100" cream="no"/>
<text x="-1" y="1.05" size="1.27" layer="25">&gt;NAME</text>
<text x="-0.762" y="-1.016" size="0.0254" layer="27">&gt;VALUE</text>
<text x="0" y="-2.54" size="1" layer="37">&gt;TP_SIGNAL_NAME</text>
</package>
</packages>
</library>
<library name="Seeed-OPL-Antenna">
<packages>
<package name="ANT2-SMD-9.5X2X1.2MM">
<smd name="1" x="-4.5" y="0" dx="1.5" dy="1.8" layer="1"/>
<smd name="2" x="4.5" y="0" dx="1.5" dy="1.8" layer="1"/>
<wire x1="-3.9" y1="1" x2="3.9" y2="1" width="0.127" layer="21"/>
<wire x1="4.75" y1="1" x2="4.75" y2="-1" width="0.127" layer="51"/>
<wire x1="3.9" y1="-1" x2="-3.9" y2="-1" width="0.127" layer="21"/>
<wire x1="-4.75" y1="-1" x2="-4.75" y2="1" width="0.127" layer="51"/>
<text x="-1.905" y="1.27" size="0.889" layer="25" ratio="11">&gt;NAME</text>
<text x="-1.905" y="-2.54" size="0.889" layer="27" ratio="11">&gt;VALUE</text>
<rectangle x1="-4.75" y1="-1.05" x2="4.75" y2="1.05" layer="39"/>
<circle x="-5.715" y="0" radius="0.381" width="0" layer="21"/>
</package>
</packages>
</library>
<library name="SparkFun-Electromechanical">
<description>&lt;h3&gt;SparkFun Electronics' preferred foot prints&lt;/h3&gt;
In this library you'll find anything that moves- switches, relays, buttons, potentiometers. Also, anything that goes on a board but isn't electrical in nature- screws, standoffs, etc.&lt;br&gt;&lt;br&gt;
We've spent an enormous amount of time creating and checking these footprints and parts, but it is the end user's responsibility to ensure correctness and suitablity for a given componet or application. If you enjoy using this library, please buy one of our products at www.sparkfun.com.
&lt;br&gt;&lt;br&gt;
&lt;b&gt;Licensing:&lt;/b&gt; Creative Commons ShareAlike 4.0 International - https://creativecommons.org/licenses/by-sa/4.0/ 
&lt;br&gt;&lt;br&gt;
You are welcome to use this library for commercial purposes. For attribution, we ask that when you begin to sell your device using our footprint, you email us with a link to the product being sold. We want bragging rights that we helped (in a very small part) to create your 8th world wonder. We would like the opportunity to feature your device on our homepage.</description>
<packages>
<package name="BATTCON_20MM_4LEGS">
<wire x1="-7.5" y1="7.35" x2="7.5" y2="7.35" width="0.2032" layer="21"/>
<wire x1="-7.5" y1="7.35" x2="-10.55" y2="4.65" width="0.2032" layer="21"/>
<wire x1="7.5" y1="7.35" x2="10.55" y2="4.65" width="0.2032" layer="21"/>
<wire x1="10.55" y1="2.55" x2="10.55" y2="0.55" width="0.2032" layer="51"/>
<wire x1="10.55" y1="-0.55" x2="10.55" y2="-2.55" width="0.2032" layer="51"/>
<wire x1="-10.55" y1="2.55" x2="-10.55" y2="0.55" width="0.2032" layer="51"/>
<wire x1="-10.55" y1="-0.55" x2="-10.55" y2="-2.55" width="0.2032" layer="51"/>
<wire x1="10.55" y1="2.55" x2="11.45" y2="2.55" width="0.2032" layer="51"/>
<wire x1="11.45" y1="2.55" x2="11.45" y2="0.55" width="0.2032" layer="51"/>
<wire x1="11.45" y1="0.55" x2="10.55" y2="0.55" width="0.2032" layer="51"/>
<wire x1="10.55" y1="-0.55" x2="11.45" y2="-0.55" width="0.2032" layer="51"/>
<wire x1="11.45" y1="-0.55" x2="11.45" y2="-2.55" width="0.2032" layer="51"/>
<wire x1="11.45" y1="-2.55" x2="10.55" y2="-2.55" width="0.2032" layer="51"/>
<wire x1="-10.55" y1="-2.55" x2="-11.45" y2="-2.55" width="0.2032" layer="51"/>
<wire x1="-11.45" y1="-2.55" x2="-11.45" y2="-0.55" width="0.2032" layer="51"/>
<wire x1="-11.45" y1="-0.55" x2="-10.55" y2="-0.55" width="0.2032" layer="51"/>
<wire x1="-10.55" y1="0.55" x2="-11.45" y2="0.55" width="0.2032" layer="51"/>
<wire x1="-11.45" y1="0.55" x2="-11.45" y2="2.55" width="0.2032" layer="51"/>
<wire x1="-11.45" y1="2.55" x2="-10.55" y2="2.55" width="0.2032" layer="51"/>
<wire x1="10.55" y1="-4.55" x2="5.55" y2="-7.95" width="0.2032" layer="21"/>
<wire x1="5.55" y1="-7.95" x2="-5.55" y2="-7.95" width="0.2032" layer="21" curve="62.415735"/>
<wire x1="-5.55" y1="-7.95" x2="-10.55" y2="-4.55" width="0.2032" layer="21"/>
<wire x1="10.55" y1="4.65" x2="10.55" y2="3.2" width="0.2032" layer="21"/>
<wire x1="-10.55" y1="3.2" x2="-10.55" y2="4.65" width="0.2032" layer="21"/>
<wire x1="-10.55" y1="-4.55" x2="-10.55" y2="-3.2" width="0.2032" layer="21"/>
<wire x1="10.55" y1="-4.55" x2="10.55" y2="-3.2" width="0.2032" layer="21"/>
<circle x="0" y="0" radius="10" width="0.2032" layer="51"/>
<smd name="1" x="-11" y="1.55" dx="2.54" dy="1.778" layer="1" rot="R90"/>
<smd name="2" x="0" y="0" dx="13" dy="8" layer="1" roundness="100" cream="no"/>
<smd name="3" x="11" y="1.55" dx="2.54" dy="1.778" layer="1" rot="R90"/>
<smd name="P$1" x="-11" y="-1.55" dx="2.54" dy="1.778" layer="1" rot="R90"/>
<smd name="P$2" x="11" y="-1.55" dx="2.54" dy="1.778" layer="1" rot="R90"/>
<text x="-0.889" y="5.969" size="0.4064" layer="25">&gt;NAME</text>
<text x="-0.889" y="4.699" size="0.4064" layer="27">&gt;VALUE</text>
<rectangle x1="-2" y1="-2" x2="2" y2="2" layer="31"/>
</package>
</packages>
</library>
<library name="resistor">
<description>&lt;b&gt;Resistors, Capacitors, Inductors&lt;/b&gt;&lt;p&gt;
Based on the previous libraries:
&lt;ul&gt;
&lt;li&gt;r.lbr
&lt;li&gt;cap.lbr 
&lt;li&gt;cap-fe.lbr
&lt;li&gt;captant.lbr
&lt;li&gt;polcap.lbr
&lt;li&gt;ipc-smd.lbr
&lt;/ul&gt;
All SMD packages are defined according to the IPC specifications and  CECC&lt;p&gt;
&lt;author&gt;Created by librarian@cadsoft.de&lt;/author&gt;&lt;p&gt;
&lt;p&gt;
for Electrolyt Capacitors see also :&lt;p&gt;
www.bccomponents.com &lt;p&gt;
www.panasonic.com&lt;p&gt;
www.kemet.com&lt;p&gt;
&lt;p&gt;
for trimmer refence see : &lt;u&gt;www.electrospec-inc.com/cross_references/trimpotcrossref.asp&lt;/u&gt;&lt;p&gt;

&lt;map name="nav_main"&gt;
&lt;area shape="rect" coords="0,1,140,23" href="../military_specs.asp" title=""&gt;
&lt;area shape="rect" coords="0,24,140,51" href="../about.asp" title=""&gt;
&lt;area shape="rect" coords="1,52,140,77" href="../rfq.asp" title=""&gt;
&lt;area shape="rect" coords="0,78,139,103" href="../products.asp" title=""&gt;
&lt;area shape="rect" coords="1,102,138,128" href="../excess_inventory.asp" title=""&gt;
&lt;area shape="rect" coords="1,129,138,150" href="../edge.asp" title=""&gt;
&lt;area shape="rect" coords="1,151,139,178" href="../industry_links.asp" title=""&gt;
&lt;area shape="rect" coords="0,179,139,201" href="../comments.asp" title=""&gt;
&lt;area shape="rect" coords="1,203,138,231" href="../directory.asp" title=""&gt;
&lt;area shape="default" nohref&gt;
&lt;/map&gt;

&lt;html&gt;

&lt;title&gt;&lt;/title&gt;

 &lt;LINK REL="StyleSheet" TYPE="text/css" HREF="style-sheet.css"&gt;

&lt;body bgcolor="#ffffff" text="#000000" marginwidth="0" marginheight="0" topmargin="0" leftmargin="0"&gt;
&lt;table border=0 cellspacing=0 cellpadding=0 width="100%" cellpaddding=0 height="55%"&gt;
&lt;tr valign="top"&gt;

&lt;/td&gt;
&lt;! &lt;td width="10"&gt;&amp;nbsp;&lt;/td&gt;
&lt;td width="90%"&gt;

&lt;b&gt;&lt;font color="#0000FF" size="4"&gt;TRIM-POT CROSS REFERENCE&lt;/font&gt;&lt;/b&gt;
&lt;P&gt;
&lt;TABLE BORDER=0 CELLSPACING=1 CELLPADDING=2&gt;
  &lt;TR&gt;
    &lt;TD COLSPAN=8&gt;
      &lt;FONT SIZE=3 FACE=ARIAL&gt;&lt;B&gt;RECTANGULAR MULTI-TURN&lt;/B&gt;&lt;/FONT&gt;
    &lt;/TD&gt;
  &lt;/TR&gt;
  &lt;TR&gt;
    &lt;TD ALIGN=CENTER&gt;
      &lt;B&gt;
      &lt;FONT SIZE=3 FACE=ARIAL color="#FF0000"&gt;BOURNS&lt;/FONT&gt;
      &lt;/B&gt;
    &lt;/TD&gt;
    &lt;TD ALIGN=CENTER&gt;
      &lt;B&gt;
      &lt;FONT SIZE=3 FACE=ARIAL color="#FF0000"&gt;BI&amp;nbsp;TECH&lt;/FONT&gt;
      &lt;/B&gt;
    &lt;/TD&gt;
    &lt;TD ALIGN=CENTER&gt;
      &lt;B&gt;
      &lt;FONT SIZE=3 FACE=ARIAL color="#FF0000"&gt;DALE-VISHAY&lt;/FONT&gt;
      &lt;/B&gt;
    &lt;/TD&gt;
    &lt;TD ALIGN=CENTER&gt;
      &lt;B&gt;
      &lt;FONT SIZE=3 FACE=ARIAL color="#FF0000"&gt;PHILIPS/MEPCO&lt;/FONT&gt;
      &lt;/B&gt;
    &lt;/TD&gt;
    &lt;TD ALIGN=CENTER&gt;
      &lt;B&gt;
      &lt;FONT SIZE=3 FACE=ARIAL color="#FF0000"&gt;MURATA&lt;/FONT&gt;
      &lt;/B&gt;
    &lt;/TD&gt;
    &lt;TD ALIGN=CENTER&gt;
      &lt;B&gt;
      &lt;FONT SIZE=3 FACE=ARIAL color="#FF0000"&gt;PANASONIC&lt;/FONT&gt;
      &lt;/B&gt;
    &lt;/TD&gt;
    &lt;TD ALIGN=CENTER&gt;
      &lt;B&gt;
      &lt;FONT SIZE=3 FACE=ARIAL color="#FF0000"&gt;SPECTROL&lt;/FONT&gt;
      &lt;/B&gt;
    &lt;/TD&gt;
    &lt;TD ALIGN=CENTER&gt;
      &lt;B&gt;
      &lt;FONT SIZE=3 FACE=ARIAL color="#FF0000"&gt;MILSPEC&lt;/FONT&gt;
      &lt;/B&gt;
    &lt;/TD&gt;&lt;TD&gt;&amp;nbsp;&lt;/TD&gt;
  &lt;/TR&gt;
  &lt;TR&gt;
    &lt;TD BGCOLOR="#cccccc" ALIGN=CENTER&gt;&lt;FONT FACE=ARIAL SIZE=3 &gt;
      3005P&lt;BR&gt;
      3006P&lt;BR&gt;
      3006W&lt;BR&gt;
      3006Y&lt;BR&gt;
      3009P&lt;BR&gt;
      3009W&lt;BR&gt;
      3009Y&lt;BR&gt;
      3057J&lt;BR&gt;
      3057L&lt;BR&gt;
      3057P&lt;BR&gt;
      3057Y&lt;BR&gt;
      3059J&lt;BR&gt;
      3059L&lt;BR&gt;
      3059P&lt;BR&gt;
      3059Y&lt;BR&gt;&lt;/FONT&gt;
    &lt;/TD&gt;
    &lt;TD BGCOLOR="#cccccc" ALIGN=CENTER&gt;&lt;FONT FACE=ARIAL SIZE=3&gt;
      -&lt;BR&gt;
      89P&lt;BR&gt;
      89W&lt;BR&gt;
      89X&lt;BR&gt;
      89PH&lt;BR&gt;
      76P&lt;BR&gt;
      89XH&lt;BR&gt;
      78SLT&lt;BR&gt;
      78L&amp;nbsp;ALT&lt;BR&gt;
      56P&amp;nbsp;ALT&lt;BR&gt;
      78P&amp;nbsp;ALT&lt;BR&gt;
      T8S&lt;BR&gt;
      78L&lt;BR&gt;
      56P&lt;BR&gt;
      78P&lt;BR&gt;&lt;/FONT&gt;
    &lt;/TD&gt;
    &lt;TD BGCOLOR="#cccccc" ALIGN=CENTER&gt;&lt;FONT FACE=ARIAL SIZE=3&gt;
      -&lt;BR&gt;
      T18/784&lt;BR&gt;
      783&lt;BR&gt;
      781&lt;BR&gt;
      -&lt;BR&gt;
      -&lt;BR&gt;
      -&lt;BR&gt;
      2199&lt;BR&gt;
      1697/1897&lt;BR&gt;
      1680/1880&lt;BR&gt;
      2187&lt;BR&gt;
      -&lt;BR&gt;
      -&lt;BR&gt;
      -&lt;BR&gt;
      -&lt;BR&gt;&lt;/FONT&gt;
    &lt;/TD&gt;
    &lt;TD BGCOLOR="#cccccc" ALIGN=CENTER&gt;&lt;FONT FACE=ARIAL SIZE=3&gt;
      -&lt;BR&gt;
      8035EKP/CT20/RJ-20P&lt;BR&gt;
      -&lt;BR&gt;
      RJ-20X&lt;BR&gt;
      -&lt;BR&gt;
      -&lt;BR&gt;
      -&lt;BR&gt;
      1211L&lt;BR&gt;
      8012EKQ&amp;nbsp;ALT&lt;BR&gt;
      8012EKR&amp;nbsp;ALT&lt;BR&gt;
      1211P&lt;BR&gt;
      8012EKJ&lt;BR&gt;
      8012EKL&lt;BR&gt;
      8012EKQ&lt;BR&gt;
      8012EKR&lt;BR&gt;&lt;/FONT&gt;
    &lt;/TD&gt;
    &lt;TD BGCOLOR="#cccccc" ALIGN=CENTER&gt;&lt;FONT FACE=ARIAL SIZE=3&gt;
      -&lt;BR&gt;
      2101P&lt;BR&gt;
      2101W&lt;BR&gt;
      2101Y&lt;BR&gt;
      -&lt;BR&gt;
      -&lt;BR&gt;
      -&lt;BR&gt;
      -&lt;BR&gt;
      -&lt;BR&gt;
      -&lt;BR&gt;
      -&lt;BR&gt;
      -&lt;BR&gt;
      2102L&lt;BR&gt;
      2102S&lt;BR&gt;
      2102Y&lt;BR&gt;&lt;/FONT&gt;
    &lt;/TD&gt;
    &lt;TD BGCOLOR="#cccccc" ALIGN=CENTER&gt;&lt;FONT FACE=ARIAL SIZE=3&gt;
      -&lt;BR&gt;
      EVMCOG&lt;BR&gt;
      -&lt;BR&gt;
      -&lt;BR&gt;
      -&lt;BR&gt;
      -&lt;BR&gt;
      -&lt;BR&gt;
      -&lt;BR&gt;
      -&lt;BR&gt;
      -&lt;BR&gt;
      -&lt;BR&gt;
      -&lt;BR&gt;
      -&lt;BR&gt;
      -&lt;BR&gt;
      -&lt;BR&gt;&lt;/FONT&gt;
    &lt;/TD&gt;
    &lt;TD BGCOLOR="#cccccc" ALIGN=CENTER&gt;&lt;FONT FACE=ARIAL SIZE=3&gt;
      -&lt;BR&gt;
      43P&lt;BR&gt;
      43W&lt;BR&gt;
      43Y&lt;BR&gt;
      -&lt;BR&gt;
      -&lt;BR&gt;
      -&lt;BR&gt;
      -&lt;BR&gt;
      40L&lt;BR&gt;
      40P&lt;BR&gt;
      40Y&lt;BR&gt;
      70Y-T602&lt;BR&gt;
      70L&lt;BR&gt;
      70P&lt;BR&gt;
      70Y&lt;BR&gt;&lt;/FONT&gt;
    &lt;/TD&gt;
    &lt;TD BGCOLOR="#cccccc" ALIGN=CENTER&gt;&lt;FONT FACE=ARIAL SIZE=3&gt;
      -&lt;BR&gt;
      -&lt;BR&gt;
      -&lt;BR&gt;
      -&lt;BR&gt;
      -&lt;BR&gt;
      -&lt;BR&gt;
      -&lt;BR&gt;
      -&lt;BR&gt;
      RT/RTR12&lt;BR&gt;
      RT/RTR12&lt;BR&gt;
      RT/RTR12&lt;BR&gt;
      -&lt;BR&gt;
      RJ/RJR12&lt;BR&gt;
      RJ/RJR12&lt;BR&gt;
      RJ/RJR12&lt;BR&gt;&lt;/FONT&gt;
    &lt;/TD&gt;
  &lt;/TR&gt;
  &lt;TR&gt;
    &lt;TD COLSPAN=8&gt;&amp;nbsp;
    &lt;/TD&gt;
  &lt;/TR&gt;
  &lt;TR&gt;
    &lt;TD COLSPAN=8&gt;
      &lt;FONT SIZE=4 FACE=ARIAL&gt;&lt;B&gt;SQUARE MULTI-TURN&lt;/B&gt;&lt;/FONT&gt;
    &lt;/TD&gt;
  &lt;/TR&gt;
  &lt;TR&gt;
   &lt;TD ALIGN=CENTER&gt;
      &lt;FONT SIZE=3 FACE=ARIAL&gt;&lt;B&gt;BOURN&lt;/B&gt;&lt;/FONT&gt;
    &lt;/TD&gt;
    &lt;TD ALIGN=CENTER&gt;
      &lt;FONT SIZE=3 FACE=ARIAL&gt;&lt;B&gt;BI&amp;nbsp;TECH&lt;/B&gt;&lt;/FONT&gt;
    &lt;/TD&gt;
    &lt;TD ALIGN=CENTER&gt;
      &lt;FONT SIZE=3 FACE=ARIAL&gt;&lt;B&gt;DALE-VISHAY&lt;/B&gt;&lt;/FONT&gt;
    &lt;/TD&gt;
    &lt;TD ALIGN=CENTER&gt;
      &lt;FONT SIZE=3 FACE=ARIAL&gt;&lt;B&gt;PHILIPS/MEPCO&lt;/B&gt;&lt;/FONT&gt;
    &lt;/TD&gt;
    &lt;TD ALIGN=CENTER&gt;
      &lt;FONT SIZE=3 FACE=ARIAL&gt;&lt;B&gt;MURATA&lt;/B&gt;&lt;/FONT&gt;
    &lt;/TD&gt;
    &lt;TD ALIGN=CENTER&gt;
      &lt;FONT SIZE=3 FACE=ARIAL&gt;&lt;B&gt;PANASONIC&lt;/B&gt;&lt;/FONT&gt;
    &lt;/TD&gt;
    &lt;TD ALIGN=CENTER&gt;
      &lt;FONT SIZE=3 FACE=ARIAL&gt;&lt;B&gt;SPECTROL&lt;/B&gt;&lt;/FONT&gt;
    &lt;/TD&gt;
    &lt;TD ALIGN=CENTER&gt;
      &lt;FONT SIZE=3 FACE=ARIAL&gt;&lt;B&gt;MILSPEC&lt;/B&gt;&lt;/FONT&gt;
    &lt;/TD&gt;
  &lt;/TR&gt;
  &lt;TR&gt;
    &lt;TD BGCOLOR="#cccccc" ALIGN=CENTER&gt;&lt;FONT FACE=ARIAL SIZE=3&gt;
      3250L&lt;BR&gt;
      3250P&lt;BR&gt;
      3250W&lt;BR&gt;
      3250X&lt;BR&gt;
      3252P&lt;BR&gt;
      3252W&lt;BR&gt;
      3252X&lt;BR&gt;
      3260P&lt;BR&gt;
      3260W&lt;BR&gt;
      3260X&lt;BR&gt;
      3262P&lt;BR&gt;
      3262W&lt;BR&gt;
      3262X&lt;BR&gt;
      3266P&lt;BR&gt;
      3266W&lt;BR&gt;
      3266X&lt;BR&gt;
      3290H&lt;BR&gt;
      3290P&lt;BR&gt;
      3290W&lt;BR&gt;
      3292P&lt;BR&gt;
      3292W&lt;BR&gt;
      3292X&lt;BR&gt;
      3296P&lt;BR&gt;
      3296W&lt;BR&gt;
      3296X&lt;BR&gt;
      3296Y&lt;BR&gt;
      3296Z&lt;BR&gt;
      3299P&lt;BR&gt;
      3299W&lt;BR&gt;
      3299X&lt;BR&gt;
      3299Y&lt;BR&gt;
      3299Z&lt;BR&gt;&lt;/FONT&gt;
    &lt;/TD&gt;
    &lt;TD BGCOLOR="#cccccc" ALIGN=CENTER&gt;&lt;FONT FACE=ARIAL SIZE=3&gt;
      -&lt;BR&gt;
      66P&amp;nbsp;ALT&lt;BR&gt;
      66W&amp;nbsp;ALT&lt;BR&gt;
      66X&amp;nbsp;ALT&lt;BR&gt;
      66P&amp;nbsp;ALT&lt;BR&gt;
      66W&amp;nbsp;ALT&lt;BR&gt;
      66X&amp;nbsp;ALT&lt;BR&gt;
      -&lt;BR&gt;
      64W&amp;nbsp;ALT&lt;BR&gt;
      -&lt;BR&gt;
      64P&amp;nbsp;ALT&lt;BR&gt;
      64W&amp;nbsp;ALT&lt;BR&gt;
      64X&amp;nbsp;ALT&lt;BR&gt;
      64P&lt;BR&gt;
      64W&lt;BR&gt;
      64X&lt;BR&gt;
      66X&amp;nbsp;ALT&lt;BR&gt;
      66P&amp;nbsp;ALT&lt;BR&gt;
      66W&amp;nbsp;ALT&lt;BR&gt;
      66P&lt;BR&gt;
      66W&lt;BR&gt;
      66X&lt;BR&gt;
      67P&lt;BR&gt;
      67W&lt;BR&gt;
      67X&lt;BR&gt;
      67Y&lt;BR&gt;
      67Z&lt;BR&gt;
      68P&lt;BR&gt;
      68W&lt;BR&gt;
      68X&lt;BR&gt;
      67Y&amp;nbsp;ALT&lt;BR&gt;
      67Z&amp;nbsp;ALT&lt;BR&gt;&lt;/FONT&gt;
    &lt;/TD&gt;
    &lt;TD BGCOLOR="#cccccc" ALIGN=CENTER&gt;&lt;FONT FACE=ARIAL SIZE=3&gt;
      5050&lt;BR&gt;
      5091&lt;BR&gt;
      5080&lt;BR&gt;
      5087&lt;BR&gt;
      -&lt;BR&gt;
      -&lt;BR&gt;
      -&lt;BR&gt;
      -&lt;BR&gt;
      -&lt;BR&gt;
      -&lt;BR&gt;
      -&lt;BR&gt;
      T63YB&lt;BR&gt;
      T63XB&lt;BR&gt;
      -&lt;BR&gt;
      -&lt;BR&gt;
      -&lt;BR&gt;
      5887&lt;BR&gt;
      5891&lt;BR&gt;
      5880&lt;BR&gt;
      -&lt;BR&gt;
      -&lt;BR&gt;
      -&lt;BR&gt;
      T93Z&lt;BR&gt;
      T93YA&lt;BR&gt;
      T93XA&lt;BR&gt;
      T93YB&lt;BR&gt;
      T93XB&lt;BR&gt;
      -&lt;BR&gt;
      -&lt;BR&gt;
      -&lt;BR&gt;
      -&lt;BR&gt;
      -&lt;BR&gt;&lt;/FONT&gt;
    &lt;/TD&gt;
    &lt;TD BGCOLOR="#cccccc" ALIGN=CENTER&gt;&lt;FONT FACE=ARIAL SIZE=3&gt;
      -&lt;BR&gt;
      -&lt;BR&gt;
      -&lt;BR&gt;
      -&lt;BR&gt;
      -&lt;BR&gt;
      -&lt;BR&gt;
      -&lt;BR&gt;
      -&lt;BR&gt;
      -&lt;BR&gt;
      -&lt;BR&gt;
      8026EKP&lt;BR&gt;
      8026EKW&lt;BR&gt;
      8026EKM&lt;BR&gt;
      8026EKP&lt;BR&gt;
      8026EKB&lt;BR&gt;
      8026EKM&lt;BR&gt;
      1309X&lt;BR&gt;
      1309P&lt;BR&gt;
      1309W&lt;BR&gt;
      8024EKP&lt;BR&gt;
      8024EKW&lt;BR&gt;
      8024EKN&lt;BR&gt;
      RJ-9P/CT9P&lt;BR&gt;
      RJ-9W&lt;BR&gt;
      RJ-9X&lt;BR&gt;
      -&lt;BR&gt;
      -&lt;BR&gt;
      -&lt;BR&gt;
      -&lt;BR&gt;
      -&lt;BR&gt;
      -&lt;BR&gt;
      -&lt;BR&gt;&lt;/FONT&gt;
    &lt;/TD&gt;
    &lt;TD BGCOLOR="#cccccc" ALIGN=CENTER&gt;&lt;FONT FACE=ARIAL SIZE=3&gt;
      -&lt;BR&gt;
      -&lt;BR&gt;
      -&lt;BR&gt;
      -&lt;BR&gt;
      -&lt;BR&gt;
      -&lt;BR&gt;
      -&lt;BR&gt;
      -&lt;BR&gt;
      -&lt;BR&gt;
      -&lt;BR&gt;
      3103P&lt;BR&gt;
      3103Y&lt;BR&gt;
      3103Z&lt;BR&gt;
      3103P&lt;BR&gt;
      3103Y&lt;BR&gt;
      3103Z&lt;BR&gt;
      -&lt;BR&gt;
      -&lt;BR&gt;
      -&lt;BR&gt;
      -&lt;BR&gt;
      -&lt;BR&gt;
      -&lt;BR&gt;
      3105P/3106P&lt;BR&gt;
      3105W/3106W&lt;BR&gt;
      3105X/3106X&lt;BR&gt;
      3105Y/3106Y&lt;BR&gt;
      3105Z/3105Z&lt;BR&gt;
      3102P&lt;BR&gt;
      3102W&lt;BR&gt;
      3102X&lt;BR&gt;
      3102Y&lt;BR&gt;
      3102Z&lt;BR&gt;&lt;/FONT&gt;
    &lt;/TD&gt;
    &lt;TD BGCOLOR="#cccccc" ALIGN=CENTER&gt;&lt;FONT FACE=ARIAL SIZE=3&gt;
      -&lt;BR&gt;
      -&lt;BR&gt;
      -&lt;BR&gt;
      -&lt;BR&gt;
      -&lt;BR&gt;
      -&lt;BR&gt;
      -&lt;BR&gt;
      -&lt;BR&gt;
      -&lt;BR&gt;
      -&lt;BR&gt;
      -&lt;BR&gt;
      -&lt;BR&gt;
      -&lt;BR&gt;
      -&lt;BR&gt;
      -&lt;BR&gt;
      -&lt;BR&gt;
      -&lt;BR&gt;
      -&lt;BR&gt;
      -&lt;BR&gt;
      -&lt;BR&gt;
      -&lt;BR&gt;
      -&lt;BR&gt;
      EVMCBG&lt;BR&gt;
      EVMCCG&lt;BR&gt;
      -&lt;BR&gt;
      -&lt;BR&gt;
      -&lt;BR&gt;
      -&lt;BR&gt;
      -&lt;BR&gt;
      -&lt;BR&gt;
      -&lt;BR&gt;
      -&lt;BR&gt;&lt;/FONT&gt;
    &lt;/TD&gt;
    &lt;TD BGCOLOR="#cccccc" ALIGN=CENTER&gt;&lt;FONT FACE=ARIAL SIZE=3&gt;
      55-1-X&lt;BR&gt;
      55-4-X&lt;BR&gt;
      55-3-X&lt;BR&gt;
      55-2-X&lt;BR&gt;
      -&lt;BR&gt;
      -&lt;BR&gt;
      -&lt;BR&gt;
      -&lt;BR&gt;
      -&lt;BR&gt;
      -&lt;BR&gt;
      -&lt;BR&gt;
      -&lt;BR&gt;
      -&lt;BR&gt;
      -&lt;BR&gt;
      -&lt;BR&gt;
      -&lt;BR&gt;
      50-2-X&lt;BR&gt;
      50-4-X&lt;BR&gt;
      50-3-X&lt;BR&gt;
      -&lt;BR&gt;
      -&lt;BR&gt;
      -&lt;BR&gt;
      64P&lt;BR&gt;
      64W&lt;BR&gt;
      64X&lt;BR&gt;
      64Y&lt;BR&gt;
      64Z&lt;BR&gt;
      -&lt;BR&gt;
      -&lt;BR&gt;
      -&lt;BR&gt;
      -&lt;BR&gt;
      -&lt;BR&gt;&lt;/FONT&gt;
    &lt;/TD&gt;
    &lt;TD BGCOLOR="#cccccc" ALIGN=CENTER&gt;&lt;FONT FACE=ARIAL SIZE=3&gt;
      RT/RTR22&lt;BR&gt;
      RT/RTR22&lt;BR&gt;
      RT/RTR22&lt;BR&gt;
      RT/RTR22&lt;BR&gt;
      RJ/RJR22&lt;BR&gt;
      RJ/RJR22&lt;BR&gt;
      RJ/RJR22&lt;BR&gt;
      RT/RTR26&lt;BR&gt;
      RT/RTR26&lt;BR&gt;
      RT/RTR26&lt;BR&gt;
      RJ/RJR26&lt;BR&gt;
      RJ/RJR26&lt;BR&gt;
      RJ/RJR26&lt;BR&gt;
      RJ/RJR26&lt;BR&gt;
      RJ/RJR26&lt;BR&gt;
      RJ/RJR26&lt;BR&gt;
      RT/RTR24&lt;BR&gt;
      RT/RTR24&lt;BR&gt;
      RT/RTR24&lt;BR&gt;
      RJ/RJR24&lt;BR&gt;
      RJ/RJR24&lt;BR&gt;
      RJ/RJR24&lt;BR&gt;
      RJ/RJR24&lt;BR&gt;
      RJ/RJR24&lt;BR&gt;
      RJ/RJR24&lt;BR&gt;
      -&lt;BR&gt;
      -&lt;BR&gt;
      -&lt;BR&gt;
      -&lt;BR&gt;
      -&lt;BR&gt;
      -&lt;BR&gt;
      -&lt;BR&gt;&lt;/FONT&gt;
    &lt;/TD&gt;
  &lt;/TR&gt;
  &lt;TR&gt;
    &lt;TD COLSPAN=8&gt;&amp;nbsp;
    &lt;/TD&gt;
  &lt;/TR&gt;
  &lt;TR&gt;
    &lt;TD COLSPAN=8&gt;
      &lt;FONT SIZE=4 FACE=ARIAL&gt;&lt;B&gt;SINGLE TURN&lt;/B&gt;&lt;/FONT&gt;
    &lt;/TD&gt;
  &lt;/TR&gt;
  &lt;TR&gt;
    &lt;TD ALIGN=CENTER&gt;
      &lt;FONT SIZE=3 FACE=ARIAL&gt;&lt;B&gt;BOURN&lt;/B&gt;&lt;/FONT&gt;
    &lt;/TD&gt;
    &lt;TD ALIGN=CENTER&gt;
      &lt;FONT SIZE=3 FACE=ARIAL&gt;&lt;B&gt;BI&amp;nbsp;TECH&lt;/B&gt;&lt;/FONT&gt;
    &lt;/TD&gt;
    &lt;TD ALIGN=CENTER&gt;
      &lt;FONT SIZE=3 FACE=ARIAL&gt;&lt;B&gt;DALE-VISHAY&lt;/B&gt;&lt;/FONT&gt;
    &lt;/TD&gt;
    &lt;TD ALIGN=CENTER&gt;
      &lt;FONT SIZE=3 FACE=ARIAL&gt;&lt;B&gt;PHILIPS/MEPCO&lt;/B&gt;&lt;/FONT&gt;
    &lt;/TD&gt;
    &lt;TD ALIGN=CENTER&gt;
      &lt;FONT SIZE=3 FACE=ARIAL&gt;&lt;B&gt;MURATA&lt;/B&gt;&lt;/FONT&gt;
    &lt;/TD&gt;
    &lt;TD ALIGN=CENTER&gt;
      &lt;FONT SIZE=3 FACE=ARIAL&gt;&lt;B&gt;PANASONIC&lt;/B&gt;&lt;/FONT&gt;
    &lt;/TD&gt;
    &lt;TD ALIGN=CENTER&gt;
      &lt;FONT SIZE=3 FACE=ARIAL&gt;&lt;B&gt;SPECTROL&lt;/B&gt;&lt;/FONT&gt;
    &lt;/TD&gt;
    &lt;TD ALIGN=CENTER&gt;
      &lt;FONT SIZE=3 FACE=ARIAL&gt;&lt;B&gt;MILSPEC&lt;/B&gt;&lt;/FONT&gt;
    &lt;/TD&gt;
  &lt;/TR&gt;
  &lt;TR&gt;
    &lt;TD BGCOLOR="#cccccc" ALIGN=CENTER&gt;&lt;FONT FACE=ARIAL SIZE=3&gt;
      3323P&lt;BR&gt;
      3323S&lt;BR&gt;
      3323W&lt;BR&gt;
      3329H&lt;BR&gt;
      3329P&lt;BR&gt;
      3329W&lt;BR&gt;
      3339H&lt;BR&gt;
      3339P&lt;BR&gt;
      3339W&lt;BR&gt;
      3352E&lt;BR&gt;
      3352H&lt;BR&gt;
      3352K&lt;BR&gt;
      3352P&lt;BR&gt;
      3352T&lt;BR&gt;
      3352V&lt;BR&gt;
      3352W&lt;BR&gt;
      3362H&lt;BR&gt;
      3362M&lt;BR&gt;
      3362P&lt;BR&gt;
      3362R&lt;BR&gt;
      3362S&lt;BR&gt;
      3362U&lt;BR&gt;
      3362W&lt;BR&gt;
      3362X&lt;BR&gt;
      3386B&lt;BR&gt;
      3386C&lt;BR&gt;
      3386F&lt;BR&gt;
      3386H&lt;BR&gt;
      3386K&lt;BR&gt;
      3386M&lt;BR&gt;
      3386P&lt;BR&gt;
      3386S&lt;BR&gt;
      3386W&lt;BR&gt;
      3386X&lt;BR&gt;&lt;/FONT&gt;
    &lt;/TD&gt;
    &lt;TD BGCOLOR="#cccccc" ALIGN=CENTER&gt;&lt;FONT FACE=ARIAL SIZE=3&gt;
      25P&lt;BR&gt;
      25S&lt;BR&gt;
      25RX&lt;BR&gt;
      82P&lt;BR&gt;
      82M&lt;BR&gt;
      82PA&lt;BR&gt;
      -&lt;BR&gt;
      -&lt;BR&gt;
      -&lt;BR&gt;
      91E&lt;BR&gt;
      91X&lt;BR&gt;
      91T&lt;BR&gt;
      91B&lt;BR&gt;
      91A&lt;BR&gt;
      91V&lt;BR&gt;
      91W&lt;BR&gt;
      25W&lt;BR&gt;
      25V&lt;BR&gt;
      25P&lt;BR&gt;
      -&lt;BR&gt;
      25S&lt;BR&gt;
      25U&lt;BR&gt;
      25RX&lt;BR&gt;
      25X&lt;BR&gt;
      72XW&lt;BR&gt;
      72XL&lt;BR&gt;
      72PM&lt;BR&gt;
      72RX&lt;BR&gt;
      -&lt;BR&gt;
      72PX&lt;BR&gt;
      72P&lt;BR&gt;
      72RXW&lt;BR&gt;
      72RXL&lt;BR&gt;
      72X&lt;BR&gt;&lt;/FONT&gt;
    &lt;/TD&gt;
    &lt;TD BGCOLOR="#cccccc" ALIGN=CENTER&gt;&lt;FONT FACE=ARIAL SIZE=3&gt;
      -&lt;BR&gt;
      -&lt;BR&gt;
      -&lt;BR&gt;
      T7YB&lt;BR&gt;
      T7YA&lt;BR&gt;
      -&lt;BR&gt;
      -&lt;BR&gt;
      -&lt;BR&gt;
      -&lt;BR&gt;
      -&lt;BR&gt;
      -&lt;BR&gt;
      -&lt;BR&gt;
      -&lt;BR&gt;
      -&lt;BR&gt;
      -&lt;BR&gt;
      -&lt;BR&gt;
      -&lt;BR&gt;
      TXD&lt;BR&gt;
      TYA&lt;BR&gt;
      TYP&lt;BR&gt;
      -&lt;BR&gt;
      TYD&lt;BR&gt;
      TX&lt;BR&gt;
      -&lt;BR&gt;
      150SX&lt;BR&gt;
      100SX&lt;BR&gt;
      102T&lt;BR&gt;
      101S&lt;BR&gt;
      190T&lt;BR&gt;
      150TX&lt;BR&gt;
      101&lt;BR&gt;
      -&lt;BR&gt;
      -&lt;BR&gt;
      101SX&lt;BR&gt;&lt;/FONT&gt;
    &lt;/TD&gt;
    &lt;TD BGCOLOR="#cccccc" ALIGN=CENTER&gt;&lt;FONT FACE=ARIAL SIZE=3&gt;
      ET6P&lt;BR&gt;
      ET6S&lt;BR&gt;
      ET6X&lt;BR&gt;
      RJ-6W/8014EMW&lt;BR&gt;
      RJ-6P/8014EMP&lt;BR&gt;
      RJ-6X/8014EMX&lt;BR&gt;
      TM7W&lt;BR&gt;
      TM7P&lt;BR&gt;
      TM7X&lt;BR&gt;
      -&lt;BR&gt;
      8017SMS&lt;BR&gt;
      -&lt;BR&gt;
      8017SMB&lt;BR&gt;
      8017SMA&lt;BR&gt;
      -&lt;BR&gt;
      -&lt;BR&gt;
      CT-6W&lt;BR&gt;
      CT-6H&lt;BR&gt;
      CT-6P&lt;BR&gt;
      CT-6R&lt;BR&gt;
      -&lt;BR&gt;
      CT-6V&lt;BR&gt;
      CT-6X&lt;BR&gt;
      -&lt;BR&gt;
      -&lt;BR&gt;
      8038EKV&lt;BR&gt;
      -&lt;BR&gt;
      8038EKX&lt;BR&gt;
      -&lt;BR&gt;
      -&lt;BR&gt;
      8038EKP&lt;BR&gt;
      8038EKZ&lt;BR&gt;
      8038EKW&lt;BR&gt;
      -&lt;BR&gt;&lt;/FONT&gt;
    &lt;/TD&gt;
    &lt;TD BGCOLOR="#cccccc" ALIGN=CENTER&gt;&lt;FONT FACE=ARIAL SIZE=3&gt;
      -&lt;BR&gt;
      -&lt;BR&gt;
      -&lt;BR&gt;
      3321H&lt;BR&gt;
      3321P&lt;BR&gt;
      3321N&lt;BR&gt;
      1102H&lt;BR&gt;
      1102P&lt;BR&gt;
      1102T&lt;BR&gt;
      RVA0911V304A&lt;BR&gt;
      -&lt;BR&gt;
      RVA0911H413A&lt;BR&gt;
      RVG0707V100A&lt;BR&gt;
      RVA0607V(H)306A&lt;BR&gt;
      RVA1214H213A&lt;BR&gt;
      -&lt;BR&gt;
      -&lt;BR&gt;
      -&lt;BR&gt;
      -&lt;BR&gt;
      -&lt;BR&gt;
      -&lt;BR&gt;
      -&lt;BR&gt;
      -&lt;BR&gt;
      -&lt;BR&gt;
      3104B&lt;BR&gt;
      3104C&lt;BR&gt;
      3104F&lt;BR&gt;
      3104H&lt;BR&gt;
      -&lt;BR&gt;
      3104M&lt;BR&gt;
      3104P&lt;BR&gt;
      3104S&lt;BR&gt;
      3104W&lt;BR&gt;
      3104X&lt;BR&gt;&lt;/FONT&gt;
    &lt;/TD&gt;
    &lt;TD BGCOLOR="#cccccc" ALIGN=CENTER&gt;&lt;FONT FACE=ARIAL SIZE=3&gt;
      EVMQ0G&lt;BR&gt;
      EVMQIG&lt;BR&gt;
      EVMQ3G&lt;BR&gt;
      EVMS0G&lt;BR&gt;
      EVMQ0G&lt;BR&gt;
      EVMG0G&lt;BR&gt;
      -&lt;BR&gt;
      -&lt;BR&gt;
      -&lt;BR&gt;
      EVMK4GA00B&lt;BR&gt;
      EVM30GA00B&lt;BR&gt;
      EVMK0GA00B&lt;BR&gt;
      EVM38GA00B&lt;BR&gt;
      EVMB6&lt;BR&gt;
      EVLQ0&lt;BR&gt;
      -&lt;BR&gt;
      EVMMSG&lt;BR&gt;
      EVMMBG&lt;BR&gt;
      EVMMAG&lt;BR&gt;
      -&lt;BR&gt;
      -&lt;BR&gt;
      EVMMCS&lt;BR&gt;
      -&lt;BR&gt;
      -&lt;BR&gt;
      -&lt;BR&gt;
      -&lt;BR&gt;
      -&lt;BR&gt;
      EVMM1&lt;BR&gt;
      -&lt;BR&gt;
      -&lt;BR&gt;
      EVMM0&lt;BR&gt;
      -&lt;BR&gt;
      -&lt;BR&gt;
      EVMM3&lt;BR&gt;&lt;/FONT&gt;
    &lt;/TD&gt;
    &lt;TD BGCOLOR="#cccccc" ALIGN=CENTER&gt;&lt;FONT FACE=ARIAL SIZE=3&gt;
      -&lt;BR&gt;
      -&lt;BR&gt;
      -&lt;BR&gt;
      62-3-1&lt;BR&gt;
      62-1-2&lt;BR&gt;
      -&lt;BR&gt;
      -&lt;BR&gt;
      -&lt;BR&gt;
      -&lt;BR&gt;
      -&lt;BR&gt;
      -&lt;BR&gt;
      -&lt;BR&gt;
      -&lt;BR&gt;
      -&lt;BR&gt;
      -&lt;BR&gt;
      -&lt;BR&gt;
      67R&lt;BR&gt;
      -&lt;BR&gt;
      67P&lt;BR&gt;
      -&lt;BR&gt;
      -&lt;BR&gt;
      -&lt;BR&gt;
      -&lt;BR&gt;
      67X&lt;BR&gt;
      63V&lt;BR&gt;
      63S&lt;BR&gt;
      63M&lt;BR&gt;
      -&lt;BR&gt;
      -&lt;BR&gt;
      63H&lt;BR&gt;
      63P&lt;BR&gt;
      -&lt;BR&gt;
      -&lt;BR&gt;
      63X&lt;BR&gt;&lt;/FONT&gt;
    &lt;/TD&gt;
    &lt;TD BGCOLOR="#cccccc" ALIGN=CENTER&gt;&lt;FONT FACE=ARIAL SIZE=3&gt;
      -&lt;BR&gt;
      -&lt;BR&gt;
      -&lt;BR&gt;
      RJ/RJR50&lt;BR&gt;
      RJ/RJR50&lt;BR&gt;
      RJ/RJR50&lt;BR&gt;
      -&lt;BR&gt;
      -&lt;BR&gt;
      -&lt;BR&gt;
      -&lt;BR&gt;
      -&lt;BR&gt;
      -&lt;BR&gt;
      -&lt;BR&gt;
      -&lt;BR&gt;
      -&lt;BR&gt;
      -&lt;BR&gt;
      -&lt;BR&gt;
      -&lt;BR&gt;
      -&lt;BR&gt;
      -&lt;BR&gt;
      -&lt;BR&gt;
      -&lt;BR&gt;
      -&lt;BR&gt;
      -&lt;BR&gt;
      -&lt;BR&gt;
      -&lt;BR&gt;
      -&lt;BR&gt;
      -&lt;BR&gt;
      -&lt;BR&gt;
      -&lt;BR&gt;
      -&lt;BR&gt;
      -&lt;BR&gt;
      -&lt;BR&gt;
      -&lt;BR&gt;&lt;/FONT&gt;
    &lt;/TD&gt;
  &lt;/TR&gt;
&lt;/TABLE&gt;
&lt;P&gt;&amp;nbsp;&lt;P&gt;
&lt;TABLE BORDER=0 CELLSPACING=1 CELLPADDING=3&gt;
  &lt;TR&gt;
    &lt;TD COLSPAN=7&gt;
      &lt;FONT color="#0000FF" SIZE=4 FACE=ARIAL&gt;&lt;B&gt;SMD TRIM-POT CROSS REFERENCE&lt;/B&gt;&lt;/FONT&gt;
      &lt;P&gt;
      &lt;FONT SIZE=4 FACE=ARIAL&gt;&lt;B&gt;MULTI-TURN&lt;/B&gt;&lt;/FONT&gt;
    &lt;/TD&gt;
  &lt;/TR&gt;
  &lt;TR&gt;
    &lt;TD&gt;
      &lt;FONT SIZE=3 FACE=ARIAL&gt;&lt;B&gt;BOURNS&lt;/B&gt;&lt;/FONT&gt;
    &lt;/TD&gt;
    &lt;TD&gt;
      &lt;FONT SIZE=3 FACE=ARIAL&gt;&lt;B&gt;BI&amp;nbsp;TECH&lt;/B&gt;&lt;/FONT&gt;
    &lt;/TD&gt;
    &lt;TD&gt;
      &lt;FONT SIZE=3 FACE=ARIAL&gt;&lt;B&gt;DALE-VISHAY&lt;/B&gt;&lt;/FONT&gt;
    &lt;/TD&gt;
    &lt;TD&gt;
      &lt;FONT SIZE=3 FACE=ARIAL&gt;&lt;B&gt;PHILIPS/MEPCO&lt;/B&gt;&lt;/FONT&gt;
    &lt;/TD&gt;
    &lt;TD&gt;
      &lt;FONT SIZE=3 FACE=ARIAL&gt;&lt;B&gt;PANASONIC&lt;/B&gt;&lt;/FONT&gt;
    &lt;/TD&gt;
    &lt;TD&gt;
      &lt;FONT SIZE=3 FACE=ARIAL&gt;&lt;B&gt;TOCOS&lt;/B&gt;&lt;/FONT&gt;
    &lt;/TD&gt;
    &lt;TD&gt;
      &lt;FONT SIZE=3 FACE=ARIAL&gt;&lt;B&gt;AUX/KYOCERA&lt;/B&gt;&lt;/FONT&gt;
    &lt;/TD&gt;
  &lt;/TR&gt;
  &lt;TR&gt;
    &lt;TD BGCOLOR="#cccccc" ALIGN=CENTER&gt;&lt;FONT FACE=ARIAL SIZE=3&gt;
      3224G&lt;BR&gt;
      3224J&lt;BR&gt;
      3224W&lt;BR&gt;
      3269P&lt;BR&gt;
      3269W&lt;BR&gt;
      3269X&lt;BR&gt;&lt;/FONT&gt;
    &lt;/TD&gt;
    &lt;TD BGCOLOR="#cccccc" ALIGN=CENTER&gt;&lt;FONT FACE=ARIAL SIZE=3&gt;
      44G&lt;BR&gt;
      44J&lt;BR&gt;
      44W&lt;BR&gt;
      84P&lt;BR&gt;
      84W&lt;BR&gt;
      84X&lt;BR&gt;&lt;/FONT&gt;
    &lt;/TD&gt;
    &lt;TD BGCOLOR="#cccccc" ALIGN=CENTER&gt;&lt;FONT FACE=ARIAL SIZE=3&gt;
      -&lt;BR&gt;
      -&lt;BR&gt;
      -&lt;BR&gt;
      ST63Z&lt;BR&gt;
      ST63Y&lt;BR&gt;
      -&lt;BR&gt;&lt;/FONT&gt;
    &lt;/TD&gt;
    &lt;TD BGCOLOR="#cccccc" ALIGN=CENTER&gt;&lt;FONT FACE=ARIAL SIZE=3&gt;
      -&lt;BR&gt;
      -&lt;BR&gt;
      -&lt;BR&gt;
      ST5P&lt;BR&gt;
      ST5W&lt;BR&gt;
      ST5X&lt;BR&gt;&lt;/FONT&gt;
    &lt;/TD&gt;
    &lt;TD BGCOLOR="#cccccc" ALIGN=CENTER&gt;&lt;FONT FACE=ARIAL SIZE=3&gt;
      -&lt;BR&gt;
      -&lt;BR&gt;
      -&lt;BR&gt;
      -&lt;BR&gt;
      -&lt;BR&gt;
      -&lt;BR&gt;&lt;/FONT&gt;
    &lt;/TD&gt;
    &lt;TD BGCOLOR="#cccccc" ALIGN=CENTER&gt;&lt;FONT FACE=ARIAL SIZE=3&gt;
      -&lt;BR&gt;
      -&lt;BR&gt;
      -&lt;BR&gt;
      -&lt;BR&gt;
      -&lt;BR&gt;
      -&lt;BR&gt;&lt;/FONT&gt;
    &lt;/TD&gt;
    &lt;TD BGCOLOR="#cccccc" ALIGN=CENTER&gt;&lt;FONT FACE=ARIAL SIZE=3&gt;
      -&lt;BR&gt;
      -&lt;BR&gt;
      -&lt;BR&gt;
      -&lt;BR&gt;
      -&lt;BR&gt;
      -&lt;BR&gt;&lt;/FONT&gt;
    &lt;/TD&gt;
  &lt;/TR&gt;
  &lt;TR&gt;
    &lt;TD COLSPAN=7&gt;&amp;nbsp;
    &lt;/TD&gt;
  &lt;/TR&gt;
  &lt;TR&gt;
    &lt;TD COLSPAN=7&gt;
      &lt;FONT SIZE=4 FACE=ARIAL&gt;&lt;B&gt;SINGLE TURN&lt;/B&gt;&lt;/FONT&gt;
    &lt;/TD&gt;
  &lt;/TR&gt;
  &lt;TR&gt;
    &lt;TD&gt;
      &lt;FONT SIZE=3 FACE=ARIAL&gt;&lt;B&gt;BOURNS&lt;/B&gt;&lt;/FONT&gt;
    &lt;/TD&gt;
    &lt;TD&gt;
      &lt;FONT SIZE=3 FACE=ARIAL&gt;&lt;B&gt;BI&amp;nbsp;TECH&lt;/B&gt;&lt;/FONT&gt;
    &lt;/TD&gt;
    &lt;TD&gt;
      &lt;FONT SIZE=3 FACE=ARIAL&gt;&lt;B&gt;DALE-VISHAY&lt;/B&gt;&lt;/FONT&gt;
    &lt;/TD&gt;
    &lt;TD&gt;
      &lt;FONT SIZE=3 FACE=ARIAL&gt;&lt;B&gt;PHILIPS/MEPCO&lt;/B&gt;&lt;/FONT&gt;
    &lt;/TD&gt;
    &lt;TD&gt;
      &lt;FONT SIZE=3 FACE=ARIAL&gt;&lt;B&gt;PANASONIC&lt;/B&gt;&lt;/FONT&gt;
    &lt;/TD&gt;
    &lt;TD&gt;
      &lt;FONT SIZE=3 FACE=ARIAL&gt;&lt;B&gt;TOCOS&lt;/B&gt;&lt;/FONT&gt;
    &lt;/TD&gt;
    &lt;TD&gt;
      &lt;FONT SIZE=3 FACE=ARIAL&gt;&lt;B&gt;AUX/KYOCERA&lt;/B&gt;&lt;/FONT&gt;
    &lt;/TD&gt;
  &lt;/TR&gt;
  &lt;TR&gt;
    &lt;TD BGCOLOR="#cccccc" ALIGN=CENTER&gt;&lt;FONT FACE=ARIAL SIZE=3&gt;
      3314G&lt;BR&gt;
      3314J&lt;BR&gt;
      3364A/B&lt;BR&gt;
      3364C/D&lt;BR&gt;
      3364W/X&lt;BR&gt;
      3313G&lt;BR&gt;
      3313J&lt;BR&gt;&lt;/FONT&gt;
    &lt;/TD&gt;
    &lt;TD BGCOLOR="#cccccc" ALIGN=CENTER&gt;&lt;FONT FACE=ARIAL SIZE=3&gt;
      23B&lt;BR&gt;
      23A&lt;BR&gt;
      21X&lt;BR&gt;
      21W&lt;BR&gt;
      -&lt;BR&gt;
      22B&lt;BR&gt;
      22A&lt;BR&gt;&lt;/FONT&gt;
    &lt;/TD&gt;
    &lt;TD BGCOLOR="#cccccc" ALIGN=CENTER&gt;&lt;FONT FACE=ARIAL SIZE=3&gt;
      ST5YL/ST53YL&lt;BR&gt;
      ST5YJ/5T53YJ&lt;BR&gt;
      ST-23A&lt;BR&gt;
      ST-22B&lt;BR&gt;
      ST-22&lt;BR&gt;
      -&lt;BR&gt;
      -&lt;BR&gt;&lt;/FONT&gt;
    &lt;/TD&gt;
    &lt;TD BGCOLOR="#cccccc" ALIGN=CENTER&gt;&lt;FONT FACE=ARIAL SIZE=3&gt;
      ST-4B&lt;BR&gt;
      ST-4A&lt;BR&gt;
      -&lt;BR&gt;
      -&lt;BR&gt;
      -&lt;BR&gt;
      ST-3B&lt;BR&gt;
      ST-3A&lt;BR&gt;&lt;/FONT&gt;
    &lt;/TD&gt;
    &lt;TD BGCOLOR="#cccccc" ALIGN=CENTER&gt;&lt;FONT FACE=ARIAL SIZE=3&gt;
      -&lt;BR&gt;
      EVM-6YS&lt;BR&gt;
      EVM-1E&lt;BR&gt;
      EVM-1G&lt;BR&gt;
      EVM-1D&lt;BR&gt;
      -&lt;BR&gt;
      -&lt;BR&gt;&lt;/FONT&gt;
    &lt;/TD&gt;
    &lt;TD BGCOLOR="#cccccc" ALIGN=CENTER&gt;&lt;FONT FACE=ARIAL SIZE=3&gt;
      G4B&lt;BR&gt;
      G4A&lt;BR&gt;
      TR04-3S1&lt;BR&gt;
      TRG04-2S1&lt;BR&gt;
      -&lt;BR&gt;
      -&lt;BR&gt;
      -&lt;BR&gt;&lt;/FONT&gt;
    &lt;/TD&gt;
    &lt;TD BGCOLOR="#cccccc" ALIGN=CENTER&gt;&lt;FONT FACE=ARIAL SIZE=3&gt;
      -&lt;BR&gt;
      -&lt;BR&gt;
      DVR-43A&lt;BR&gt;
      CVR-42C&lt;BR&gt;
      CVR-42A/C&lt;BR&gt;
      -&lt;BR&gt;
      -&lt;BR&gt;&lt;/FONT&gt;
    &lt;/TD&gt;
  &lt;/TR&gt;
&lt;/TABLE&gt;
&lt;P&gt;
&lt;FONT SIZE=4 FACE=ARIAL&gt;&lt;B&gt;ALT =&amp;nbsp;ALTERNATE&lt;/B&gt;&lt;/FONT&gt;
&lt;P&gt;

&amp;nbsp;
&lt;P&gt;
&lt;/td&gt;
&lt;/tr&gt;
&lt;/table&gt;
&lt;/BODY&gt;&lt;/HTML&gt;</description>
<packages>
<package name="C0603K">
<description>&lt;b&gt;Ceramic Chip Capacitor KEMET 0603 reflow solder&lt;/b&gt;&lt;p&gt;
Metric Code Size 1608</description>
<wire x1="-0.725" y1="0.35" x2="0.725" y2="0.35" width="0.1016" layer="51"/>
<wire x1="0.725" y1="-0.35" x2="-0.725" y2="-0.35" width="0.1016" layer="51"/>
<smd name="1" x="-0.875" y="0" dx="1.05" dy="1.08" layer="1"/>
<smd name="2" x="0.875" y="0" dx="1.05" dy="1.08" layer="1"/>
<text x="-0.8" y="0.65" size="1.016" layer="25">&gt;NAME</text>
<text x="-0.8" y="-1.65" size="1.016" layer="27">&gt;VALUE</text>
<rectangle x1="-0.8" y1="-0.4" x2="-0.45" y2="0.4" layer="51"/>
<rectangle x1="0.45" y1="-0.4" x2="0.8" y2="0.4" layer="51"/>
</package>
<package name="C0402K">
<description>&lt;b&gt;Ceramic Chip Capacitor KEMET 0204 reflow solder&lt;/b&gt;&lt;p&gt;
Metric Code Size 1005</description>
<wire x1="-0.425" y1="0.2" x2="0.425" y2="0.2" width="0.1016" layer="51"/>
<wire x1="0.425" y1="-0.2" x2="-0.425" y2="-0.2" width="0.1016" layer="51"/>
<smd name="1" x="-0.6" y="0" dx="0.925" dy="0.74" layer="1"/>
<smd name="2" x="0.6" y="0" dx="0.925" dy="0.74" layer="1"/>
<text x="-0.5" y="0.425" size="1.016" layer="25">&gt;NAME</text>
<text x="-0.5" y="-1.45" size="1.016" layer="27">&gt;VALUE</text>
<rectangle x1="-0.5" y1="-0.25" x2="-0.225" y2="0.25" layer="51"/>
<rectangle x1="0.225" y1="-0.25" x2="0.5" y2="0.25" layer="51"/>
</package>
<package name="R0603">
<description>&lt;b&gt;RESISTOR&lt;/b&gt;</description>
<wire x1="-0.432" y1="-0.356" x2="0.432" y2="-0.356" width="0.1524" layer="51"/>
<wire x1="0.432" y1="0.356" x2="-0.432" y2="0.356" width="0.1524" layer="51"/>
<wire x1="-1.473" y1="0.983" x2="1.473" y2="0.983" width="0.0508" layer="39"/>
<wire x1="1.473" y1="0.983" x2="1.473" y2="-0.983" width="0.0508" layer="39"/>
<wire x1="1.473" y1="-0.983" x2="-1.473" y2="-0.983" width="0.0508" layer="39"/>
<wire x1="-1.473" y1="-0.983" x2="-1.473" y2="0.983" width="0.0508" layer="39"/>
<smd name="1" x="-0.85" y="0" dx="1" dy="1.1" layer="1"/>
<smd name="2" x="0.85" y="0" dx="1" dy="1.1" layer="1"/>
<text x="-0.635" y="0.635" size="1.27" layer="25">&gt;NAME</text>
<text x="-0.635" y="-1.905" size="1.27" layer="27">&gt;VALUE</text>
<rectangle x1="0.4318" y1="-0.4318" x2="0.8382" y2="0.4318" layer="51"/>
<rectangle x1="-0.8382" y1="-0.4318" x2="-0.4318" y2="0.4318" layer="51"/>
<rectangle x1="-0.1999" y1="-0.4001" x2="0.1999" y2="0.4001" layer="35"/>
</package>
</packages>
</library>
<library name="Seeed-OPL-Button">
<packages>
<package name="SW4-SMD-5.2X5.2X1.5MM">
<smd name="1" x="-3.1" y="1.85" dx="1.8" dy="1.1" layer="1"/>
<smd name="2" x="3.1" y="1.85" dx="1.8" dy="1.1" layer="1"/>
<smd name="3" x="3.1" y="-1.85" dx="1.8" dy="1.1" layer="1"/>
<smd name="4" x="-3.1" y="-1.85" dx="1.8" dy="1.1" layer="1"/>
<wire x1="2.54" y1="1.27" x2="2.54" y2="-1.27" width="0.127" layer="21"/>
<wire x1="2.54" y1="-1.27" x2="1.27" y2="-2.54" width="0.127" layer="21"/>
<wire x1="1.27" y1="-2.54" x2="-1.27" y2="-2.54" width="0.127" layer="21"/>
<wire x1="-1.27" y1="-2.54" x2="-2.54" y2="-1.27" width="0.127" layer="21"/>
<wire x1="-2.54" y1="-1.27" x2="-2.54" y2="1.27" width="0.127" layer="21"/>
<wire x1="-2.54" y1="1.27" x2="-1.27" y2="2.54" width="0.127" layer="21"/>
<wire x1="-1.27" y1="2.54" x2="1.27" y2="2.54" width="0.127" layer="21"/>
<wire x1="1.27" y1="2.54" x2="2.54" y2="1.27" width="0.127" layer="21"/>
<wire x1="-0.889" y1="1.905" x2="0.889" y2="1.905" width="0.127" layer="21"/>
<wire x1="0.889" y1="1.905" x2="1.905" y2="0.889" width="0.127" layer="21"/>
<wire x1="1.905" y1="0.889" x2="1.905" y2="-0.889" width="0.127" layer="21"/>
<wire x1="1.905" y1="-0.889" x2="0.889" y2="-1.905" width="0.127" layer="21"/>
<wire x1="0.889" y1="-1.905" x2="-0.889" y2="-1.905" width="0.127" layer="21"/>
<wire x1="-0.889" y1="-1.905" x2="-1.905" y2="-0.889" width="0.127" layer="21"/>
<wire x1="-1.905" y1="-0.889" x2="-1.905" y2="0.889" width="0.127" layer="21"/>
<wire x1="-1.905" y1="0.889" x2="-0.889" y2="1.905" width="0.127" layer="21"/>
<circle x="0" y="0" radius="1.09249375" width="0.127" layer="21"/>
<rectangle x1="-2.54" y1="-2.54" x2="2.54" y2="2.54" layer="39"/>
<text x="-1.905" y="2.794" size="0.889" layer="25" ratio="11">&gt;NAME</text>
<text x="-1.905" y="-3.683" size="0.889" layer="27" ratio="11">&gt;VALUE</text>
</package>
</packages>
</library>
<library name="Seeed-OPL-Inductor">
<packages>
<package name="L0603">
<wire x1="-1.397" y1="0.635" x2="1.397" y2="0.635" width="0.127" layer="21"/>
<wire x1="1.397" y1="0.635" x2="1.397" y2="-0.635" width="0.127" layer="21"/>
<wire x1="1.397" y1="-0.635" x2="-1.397" y2="-0.635" width="0.127" layer="21"/>
<wire x1="-1.397" y1="-0.635" x2="-1.397" y2="0.635" width="0.127" layer="21"/>
<smd name="1" x="-0.762" y="0" dx="0.889" dy="0.889" layer="1" roundness="25"/>
<smd name="2" x="0.762" y="0" dx="0.889" dy="0.889" layer="1" roundness="25"/>
<text x="-1.905" y="0.889" size="0.889" layer="25" ratio="11">&gt;NAME</text>
<text x="-1.905" y="-1.7145" size="0.889" layer="27" ratio="11">&gt;VALUE</text>
</package>
<package name="L0402">
<wire x1="-0.762" y1="-0.4445" x2="-0.889" y2="-0.3175" width="0.0762" layer="21" curve="-90"/>
<wire x1="-0.889" y1="-0.3175" x2="-0.889" y2="0.3175" width="0.0762" layer="21"/>
<wire x1="-0.889" y1="0.3175" x2="-0.762" y2="0.4445" width="0.0762" layer="21" curve="-90"/>
<wire x1="-0.762" y1="0.4445" x2="0.762" y2="0.4445" width="0.0762" layer="21"/>
<wire x1="0.762" y1="0.4445" x2="0.889" y2="0.3175" width="0.0762" layer="21" curve="-90"/>
<wire x1="0.889" y1="0.3175" x2="0.889" y2="-0.3175" width="0.0762" layer="21"/>
<wire x1="0.889" y1="-0.3175" x2="0.762" y2="-0.4445" width="0.0762" layer="21" curve="-90"/>
<wire x1="0.762" y1="-0.4445" x2="-0.762" y2="-0.4445" width="0.0762" layer="21"/>
<smd name="1" x="-0.4445" y="0" dx="0.635" dy="0.635" layer="1" roundness="50"/>
<smd name="2" x="0.4445" y="0" dx="0.635" dy="0.635" layer="1" roundness="50"/>
<text x="-1.27" y="0.635" size="0.889" layer="25" ratio="11">&gt;NAME</text>
<text x="-1.27" y="-1.524" size="0.889" layer="27" font="vector" ratio="11">&gt;VALUE</text>
</package>
</packages>
</library>
<library name="SparkFun-LED">
<description>&lt;h3&gt;SparkFun Electronics' preferred foot prints&lt;/h3&gt;
In this library you'll find discrete LEDs for illumination or indication, but no displays.&lt;br&gt;&lt;br&gt;
We've spent an enormous amount of time creating and checking these footprints and parts, but it is the end user's responsibility to ensure correctness and suitablity for a given componet or application. If you enjoy using this library, please buy one of our products at www.sparkfun.com.
&lt;br&gt;&lt;br&gt;
&lt;b&gt;Licensing:&lt;/b&gt; Creative Commons ShareAlike 4.0 International - https://creativecommons.org/licenses/by-sa/4.0/ 
&lt;br&gt;&lt;br&gt;
You are welcome to use this library for commercial purposes. For attribution, we ask that when you begin to sell your device using our footprint, you email us with a link to the product being sold. We want bragging rights that we helped (in a very small part) to create your 8th world wonder. We would like the opportunity to feature your device on our homepage.</description>
<packages>
<package name="LED-TRICOLOR-5050">
<description>&lt;H3&gt;5050 SMD RGB LED&lt;/h3&gt;
5.0mm x 5.0mm, 2.6mm thickness</description>
<circle x="-0.7" y="2" radius="0.2236" width="0.2032" layer="21"/>
<circle x="0" y="0" radius="2" width="0.127" layer="51"/>
<wire x1="-2.5" y1="-2.5" x2="-2.5" y2="2" width="0.127" layer="51"/>
<wire x1="-1.8" y1="2.5" x2="2.5" y2="2.5" width="0.127" layer="51"/>
<wire x1="2.5" y1="2.5" x2="2.5" y2="-2.5" width="0.127" layer="51"/>
<wire x1="2.5" y1="-2.5" x2="-2.5" y2="-2.5" width="0.127" layer="51"/>
<wire x1="-1" y1="2.5" x2="1" y2="2.5" width="0.2032" layer="21"/>
<wire x1="-1" y1="-2.5" x2="1" y2="-2.5" width="0.2032" layer="21"/>
<wire x1="-2.5" y1="0.7" x2="-2.5" y2="0.9" width="0.2032" layer="21"/>
<wire x1="-2.5" y1="-0.9" x2="-2.5" y2="-0.7" width="0.2032" layer="21"/>
<wire x1="2.5" y1="-0.9" x2="2.5" y2="-0.7" width="0.2032" layer="21"/>
<wire x1="2.5" y1="0.7" x2="2.5" y2="0.9" width="0.2032" layer="21"/>
<wire x1="0.254" y1="-0.127" x2="0.254" y2="0.127" width="0.2032" layer="21"/>
<wire x1="0.254" y1="0.127" x2="0.508" y2="0.127" width="0.2032" layer="21"/>
<wire x1="0.508" y1="0.127" x2="0.508" y2="-0.127" width="0.2032" layer="21"/>
<wire x1="0.508" y1="-0.127" x2="0.254" y2="-0.127" width="0.2032" layer="21"/>
<wire x1="-2.5" y1="2" x2="-1.8" y2="2.5" width="0.127" layer="51"/>
<rectangle x1="1.7" y1="-0.45" x2="2.7" y2="0.45" layer="51"/>
<rectangle x1="1.7" y1="1.15" x2="2.7" y2="2.05" layer="51"/>
<rectangle x1="1.7" y1="-2.05" x2="2.7" y2="-1.15" layer="51"/>
<rectangle x1="-2.7" y1="1.15" x2="-1.7" y2="2.05" layer="51" rot="R180"/>
<rectangle x1="-2.7" y1="-0.45" x2="-1.7" y2="0.45" layer="51" rot="R180"/>
<rectangle x1="-2.7" y1="-2.05" x2="-1.7" y2="-1.15" layer="51" rot="R180"/>
<smd name="1" x="-2.4" y="1.7" dx="2" dy="1.1" layer="1" roundness="100"/>
<smd name="2" x="-2.4" y="0" dx="2" dy="1.1" layer="1" roundness="100"/>
<smd name="3" x="-2.4" y="-1.7" dx="2" dy="1.1" layer="1" roundness="100"/>
<smd name="4" x="2.4" y="-1.7" dx="2" dy="1.1" layer="1" roundness="100"/>
<smd name="5" x="2.4" y="0" dx="2" dy="1.1" layer="1" roundness="100"/>
<smd name="6" x="2.4" y="1.7" dx="2" dy="1.1" layer="1" roundness="100"/>
<text x="-2.54" y="2.794" size="0.762" layer="25">&gt;Name</text>
<text x="-2.54" y="-3.556" size="0.762" layer="27">&gt;Value</text>
</package>
</packages>
</library>
<library name="NordicSemi">
<packages>
<package name="QFN48">
<smd name="1" x="-3.17" y="2.2" dx="1.3" dy="0.2257" layer="1"/>
<smd name="GND" x="0" y="0" dx="4.66" dy="4.66" layer="1"/>
<smd name="2" x="-3.17" y="1.8" dx="1.3" dy="0.2257" layer="1"/>
<smd name="3" x="-3.17" y="1.4" dx="1.3" dy="0.2257" layer="1"/>
<smd name="4" x="-3.17" y="1" dx="1.3" dy="0.2257" layer="1"/>
<smd name="5" x="-3.17" y="0.6" dx="1.3" dy="0.2257" layer="1"/>
<smd name="6" x="-3.17" y="0.2" dx="1.3" dy="0.2257" layer="1"/>
<smd name="7" x="-3.17" y="-0.2" dx="1.3" dy="0.2257" layer="1"/>
<smd name="8" x="-3.17" y="-0.6" dx="1.3" dy="0.2257" layer="1"/>
<smd name="9" x="-3.17" y="-1" dx="1.3" dy="0.2257" layer="1"/>
<smd name="10" x="-3.17" y="-1.4" dx="1.3" dy="0.2257" layer="1"/>
<smd name="11" x="-3.17" y="-1.8" dx="1.3" dy="0.2257" layer="1"/>
<smd name="12" x="-3.17" y="-2.2" dx="1.3" dy="0.2257" layer="1"/>
<smd name="13" x="-2.2" y="-3.17" dx="1.3" dy="0.2257" layer="1" rot="R90"/>
<smd name="14" x="-1.8" y="-3.17" dx="1.3" dy="0.2257" layer="1" rot="R90"/>
<smd name="15" x="-1.4" y="-3.17" dx="1.3" dy="0.2257" layer="1" rot="R90"/>
<smd name="16" x="-1" y="-3.17" dx="1.3" dy="0.2257" layer="1" rot="R90"/>
<smd name="17" x="-0.6" y="-3.17" dx="1.3" dy="0.2257" layer="1" rot="R90"/>
<smd name="18" x="-0.2" y="-3.17" dx="1.3" dy="0.2257" layer="1" rot="R90"/>
<smd name="19" x="0.2" y="-3.17" dx="1.3" dy="0.2257" layer="1" rot="R90"/>
<smd name="20" x="0.6" y="-3.17" dx="1.3" dy="0.2257" layer="1" rot="R90"/>
<smd name="21" x="1" y="-3.17" dx="1.3" dy="0.2257" layer="1" rot="R90"/>
<smd name="22" x="1.4" y="-3.17" dx="1.3" dy="0.2257" layer="1" rot="R90"/>
<smd name="23" x="1.8" y="-3.17" dx="1.3" dy="0.2257" layer="1" rot="R90"/>
<smd name="24" x="2.2" y="-3.17" dx="1.3" dy="0.2257" layer="1" rot="R90"/>
<smd name="25" x="3.17" y="-2.2" dx="1.3" dy="0.2257" layer="1" rot="R180"/>
<smd name="26" x="3.17" y="-1.8" dx="1.3" dy="0.2257" layer="1" rot="R180"/>
<smd name="27" x="3.17" y="-1.4" dx="1.3" dy="0.2257" layer="1" rot="R180"/>
<smd name="28" x="3.17" y="-1" dx="1.3" dy="0.2257" layer="1" rot="R180"/>
<smd name="29" x="3.17" y="-0.6" dx="1.3" dy="0.2257" layer="1" rot="R180"/>
<smd name="30" x="3.17" y="-0.2" dx="1.3" dy="0.2257" layer="1" rot="R180"/>
<smd name="31" x="3.17" y="0.2" dx="1.3" dy="0.2257" layer="1" rot="R180"/>
<smd name="32" x="3.17" y="0.6" dx="1.3" dy="0.2257" layer="1" rot="R180"/>
<smd name="33" x="3.17" y="1" dx="1.3" dy="0.2257" layer="1" rot="R180"/>
<smd name="34" x="3.17" y="1.4" dx="1.3" dy="0.2257" layer="1" rot="R180"/>
<smd name="35" x="3.17" y="1.8" dx="1.3" dy="0.2257" layer="1" rot="R180"/>
<smd name="36" x="3.17" y="2.2" dx="1.3" dy="0.2257" layer="1" rot="R180"/>
<smd name="37" x="2.2" y="3.17" dx="1.3" dy="0.2257" layer="1" rot="R270"/>
<smd name="38" x="1.8" y="3.17" dx="1.3" dy="0.2257" layer="1" rot="R270"/>
<smd name="39" x="1.4" y="3.17" dx="1.3" dy="0.2257" layer="1" rot="R270"/>
<smd name="40" x="1" y="3.17" dx="1.3" dy="0.2257" layer="1" rot="R270"/>
<smd name="41" x="0.6" y="3.17" dx="1.3" dy="0.2257" layer="1" rot="R270"/>
<smd name="42" x="0.2" y="3.17" dx="1.3" dy="0.2257" layer="1" rot="R270"/>
<smd name="43" x="-0.2" y="3.17" dx="1.3" dy="0.2257" layer="1" rot="R270"/>
<smd name="44" x="-0.6" y="3.17" dx="1.3" dy="0.2257" layer="1" rot="R270"/>
<smd name="45" x="-1" y="3.17" dx="1.3" dy="0.2257" layer="1" rot="R270"/>
<smd name="46" x="-1.4" y="3.17" dx="1.3" dy="0.2257" layer="1" rot="R270"/>
<smd name="47" x="-1.8" y="3.17" dx="1.3" dy="0.2257" layer="1" rot="R270"/>
<smd name="48" x="-2.2" y="3.17" dx="1.3" dy="0.2257" layer="1" rot="R270"/>
<text x="-2.54" y="5.08" size="1.27" layer="25">&gt;NAME</text>
<text x="-2.54" y="-6.35" size="1.27" layer="27">&gt;VALUE</text>
<circle x="-2.64" y="2.45" radius="0.0206125" width="0.127" layer="21"/>
<wire x1="-2.999740625" y1="2.415540625" x2="-2.999740625" y2="2.999740625" width="0.127" layer="21"/>
<wire x1="-2.999740625" y1="2.999740625" x2="-2.41808125" y2="2.999740625" width="0.127" layer="21"/>
<wire x1="2.999740625" y1="2.415540625" x2="2.999740625" y2="3.00228125" width="0.127" layer="21"/>
<wire x1="2.999740625" y1="-2.999740625" x2="2.415540625" y2="-2.999740625" width="0.127" layer="21"/>
<wire x1="-2.999740625" y1="-2.415540625" x2="-2.999740625" y2="-2.999740625" width="0.127" layer="21"/>
<wire x1="2.418078125" y1="3.002278125" x2="2.9997375" y2="3.002278125" width="0.127" layer="21"/>
<wire x1="2.99974375" y1="-2.99974375" x2="2.99974375" y2="-2.418084375" width="0.127" layer="21"/>
<wire x1="-2.418078125" y1="-2.999734375" x2="-2.9997375" y2="-2.999734375" width="0.127" layer="21"/>
</package>
</packages>
</library>
<library name="KX-7">
<packages>
<package name="KX-07">
<smd name="P1" x="-1.15" y="-0.85" dx="1.3" dy="1.1" layer="1"/>
<smd name="P2" x="1.15" y="-0.85" dx="1.3" dy="1.1" layer="1"/>
<smd name="P3" x="1.15" y="0.95" dx="1.3" dy="1.1" layer="1"/>
<smd name="P4" x="-1.15" y="0.95" dx="1.3" dy="1.1" layer="1"/>
</package>
</packages>
</library>
<library name="CRYSTALL_32KHZ">
<packages>
<package name="CRYSTALL_32KHZ">
<smd name="P1" x="-1.5" y="0" dx="2" dy="1.35" layer="1"/>
<smd name="P2" x="1.5" y="0" dx="2" dy="1.35" layer="1"/>
</package>
</packages>
</library>
</libraries>
<attributes>
</attributes>
<variantdefs>
</variantdefs>
<classes>
<class number="0" name="default" width="0" drill="0">
</class>
</classes>
<designrules name="default *">
<description language="de">&lt;b&gt;EAGLE Design Rules&lt;/b&gt;
&lt;p&gt;
Die Standard-Design-Rules sind so gewählt, dass sie für 
die meisten Anwendungen passen. Sollte ihre Platine 
besondere Anforderungen haben, treffen Sie die erforderlichen
Einstellungen hier und speichern die Design Rules unter 
einem neuen Namen ab.</description>
<description language="en">&lt;b&gt;EAGLE Design Rules&lt;/b&gt;
&lt;p&gt;
The default Design Rules have been set to cover
a wide range of applications. Your particular design
may have different requirements, so please make the
necessary adjustments and save your customized
design rules under a new name.</description>
<param name="layerSetup" value="(1*16)"/>
<param name="mtCopper" value="0.035mm 0.035mm 0.035mm 0.035mm 0.035mm 0.035mm 0.035mm 0.035mm 0.035mm 0.035mm 0.035mm 0.035mm 0.035mm 0.035mm 0.035mm 0.035mm"/>
<param name="mtIsolate" value="1.5mm 0.15mm 0.2mm 0.15mm 0.2mm 0.15mm 0.2mm 0.15mm 0.2mm 0.15mm 0.2mm 0.15mm 0.2mm 0.15mm 0.2mm"/>
<param name="mdWireWire" value="7mil"/>
<param name="mdWirePad" value="7mil"/>
<param name="mdWireVia" value="7mil"/>
<param name="mdPadPad" value="7mil"/>
<param name="mdPadVia" value="7mil"/>
<param name="mdViaVia" value="7mil"/>
<param name="mdSmdPad" value="7mil"/>
<param name="mdSmdVia" value="7mil"/>
<param name="mdSmdSmd" value="7mil"/>
<param name="mdViaViaSameLayer" value="8mil"/>
<param name="mnLayersViaInSmd" value="2"/>
<param name="mdCopperDimension" value="40mil"/>
<param name="mdDrill" value="8mil"/>
<param name="mdSmdStop" value="0mil"/>
<param name="msWidth" value="7mil"/>
<param name="msDrill" value="15mil"/>
<param name="msMicroVia" value="9.99mm"/>
<param name="msBlindViaRatio" value="0.5"/>
<param name="rvPadTop" value="0.25"/>
<param name="rvPadInner" value="0.25"/>
<param name="rvPadBottom" value="0.25"/>
<param name="rvViaOuter" value="0.25"/>
<param name="rvViaInner" value="0.25"/>
<param name="rvMicroViaOuter" value="0.25"/>
<param name="rvMicroViaInner" value="0.25"/>
<param name="rlMinPadTop" value="10mil"/>
<param name="rlMaxPadTop" value="20mil"/>
<param name="rlMinPadInner" value="10mil"/>
<param name="rlMaxPadInner" value="20mil"/>
<param name="rlMinPadBottom" value="10mil"/>
<param name="rlMaxPadBottom" value="20mil"/>
<param name="rlMinViaOuter" value="8mil"/>
<param name="rlMaxViaOuter" value="20mil"/>
<param name="rlMinViaInner" value="8mil"/>
<param name="rlMaxViaInner" value="20mil"/>
<param name="rlMinMicroViaOuter" value="4mil"/>
<param name="rlMaxMicroViaOuter" value="20mil"/>
<param name="rlMinMicroViaInner" value="4mil"/>
<param name="rlMaxMicroViaInner" value="20mil"/>
<param name="psTop" value="-1"/>
<param name="psBottom" value="-1"/>
<param name="psFirst" value="-1"/>
<param name="psElongationLong" value="100"/>
<param name="psElongationOffset" value="100"/>
<param name="mvStopFrame" value="1"/>
<param name="mvCreamFrame" value="0"/>
<param name="mlMinStopFrame" value="4mil"/>
<param name="mlMaxStopFrame" value="4mil"/>
<param name="mlMinCreamFrame" value="0mil"/>
<param name="mlMaxCreamFrame" value="0mil"/>
<param name="mlViaStopLimit" value="16mil"/>
<param name="srRoundness" value="0"/>
<param name="srMinRoundness" value="0mil"/>
<param name="srMaxRoundness" value="0mil"/>
<param name="slThermalIsolate" value="10mil"/>
<param name="slThermalsForVias" value="0"/>
<param name="dpMaxLengthDifference" value="10mm"/>
<param name="dpGapFactor" value="2.5"/>
<param name="checkGrid" value="0"/>
<param name="checkAngle" value="0"/>
<param name="checkFont" value="1"/>
<param name="checkRestrict" value="1"/>
<param name="useDiameter" value="13"/>
<param name="maxErrors" value="50"/>
</designrules>
<autorouter>
<pass name="Default">
<param name="RoutingGrid" value="50mil"/>
<param name="AutoGrid" value="1"/>
<param name="Efforts" value="0"/>
<param name="TopRouterVariant" value="1"/>
<param name="tpViaShape" value="round"/>
<param name="PrefDir.1" value="a"/>
<param name="PrefDir.2" value="0"/>
<param name="PrefDir.3" value="0"/>
<param name="PrefDir.4" value="0"/>
<param name="PrefDir.5" value="0"/>
<param name="PrefDir.6" value="0"/>
<param name="PrefDir.7" value="0"/>
<param name="PrefDir.8" value="0"/>
<param name="PrefDir.9" value="0"/>
<param name="PrefDir.10" value="0"/>
<param name="PrefDir.11" value="0"/>
<param name="PrefDir.12" value="0"/>
<param name="PrefDir.13" value="0"/>
<param name="PrefDir.14" value="0"/>
<param name="PrefDir.15" value="0"/>
<param name="PrefDir.16" value="a"/>
<param name="cfVia" value="8"/>
<param name="cfNonPref" value="5"/>
<param name="cfChangeDir" value="2"/>
<param name="cfOrthStep" value="2"/>
<param name="cfDiagStep" value="3"/>
<param name="cfExtdStep" value="0"/>
<param name="cfBonusStep" value="1"/>
<param name="cfMalusStep" value="1"/>
<param name="cfPadImpact" value="4"/>
<param name="cfSmdImpact" value="4"/>
<param name="cfBusImpact" value="0"/>
<param name="cfHugging" value="3"/>
<param name="cfAvoid" value="4"/>
<param name="cfPolygon" value="10"/>
<param name="cfBase.1" value="0"/>
<param name="cfBase.2" value="1"/>
<param name="cfBase.3" value="1"/>
<param name="cfBase.4" value="1"/>
<param name="cfBase.5" value="1"/>
<param name="cfBase.6" value="1"/>
<param name="cfBase.7" value="1"/>
<param name="cfBase.8" value="1"/>
<param name="cfBase.9" value="1"/>
<param name="cfBase.10" value="1"/>
<param name="cfBase.11" value="1"/>
<param name="cfBase.12" value="1"/>
<param name="cfBase.13" value="1"/>
<param name="cfBase.14" value="1"/>
<param name="cfBase.15" value="1"/>
<param name="cfBase.16" value="0"/>
<param name="mnVias" value="20"/>
<param name="mnSegments" value="9999"/>
<param name="mnExtdSteps" value="9999"/>
<param name="mnRipupLevel" value="10"/>
<param name="mnRipupSteps" value="100"/>
<param name="mnRipupTotal" value="100"/>
</pass>
<pass name="Follow-me" refer="Default" active="yes">
</pass>
<pass name="Busses" refer="Default" active="yes">
<param name="cfNonPref" value="4"/>
<param name="cfBusImpact" value="4"/>
<param name="cfHugging" value="0"/>
<param name="mnVias" value="0"/>
</pass>
<pass name="Route" refer="Default" active="yes">
</pass>
<pass name="Optimize1" refer="Default" active="yes">
<param name="cfVia" value="99"/>
<param name="cfExtdStep" value="10"/>
<param name="cfHugging" value="1"/>
<param name="mnExtdSteps" value="1"/>
<param name="mnRipupLevel" value="0"/>
</pass>
<pass name="Optimize2" refer="Optimize1" active="yes">
<param name="cfNonPref" value="0"/>
<param name="cfChangeDir" value="6"/>
<param name="cfExtdStep" value="0"/>
<param name="cfBonusStep" value="2"/>
<param name="cfMalusStep" value="2"/>
<param name="cfPadImpact" value="2"/>
<param name="cfSmdImpact" value="2"/>
<param name="cfHugging" value="0"/>
</pass>
<pass name="Optimize3" refer="Optimize2" active="yes">
<param name="cfChangeDir" value="8"/>
<param name="cfPadImpact" value="0"/>
<param name="cfSmdImpact" value="0"/>
</pass>
<pass name="Optimize4" refer="Optimize3" active="yes">
<param name="cfChangeDir" value="25"/>
</pass>
</autorouter>
<elements>
<element name="+3.3V" library="testpad" package="TP20R" value="TPTP20R" x="10.4" y="-7.45">
<attribute name="TP_SIGNAL_NAME" value="" x="10.4" y="-7.45" size="1.778" layer="27" display="off"/>
</element>
<element name="ANT1" library="Seeed-OPL-Antenna" package="ANT2-SMD-9.5X2X1.2MM" value="ALA931C5" x="11.321678125" y="0.467659375" rot="R90">
<attribute name="MPN" value="2450AT45A100E" x="11.321678125" y="0.467659375" size="1.778" layer="27" rot="R90" display="off"/>
</element>
<element name="BAT1" library="SparkFun-Electromechanical" package="BATTCON_20MM_4LEGS" value="20mm coincell" x="0" y="0.01" rot="MR0">
<attribute name="PROD_ID" value="BATT-10373" x="0" y="0.01" size="1.778" layer="28" rot="MR0" display="off"/>
</element>
<element name="C29" library="resistor" package="C0603K" value="12pf" x="-9.057540625" y="5.75351875" rot="R90"/>
<element name="C30" library="resistor" package="C0603K" value="12pf" x="-3.5313375" y="11.821215625" rot="R270"/>
<element name="C31" library="resistor" package="C0603K" value="1nF" x="4.29" y="7.84" rot="R180"/>
<element name="C32" library="resistor" package="C0603K" value="0.1uF" x="-4.41" y="7.65"/>
<element name="C34" library="resistor" package="C0603K" value="10nF" x="0.07" y="-2.48" rot="R180"/>
<element name="C35" library="resistor" package="C0603K" value="0.1uF" x="-1.9" y="11.84" rot="R270"/>
<element name="C36" library="resistor" package="C0603K" value="12pf" x="5.43" y="10.44" rot="R270"/>
<element name="C37" library="resistor" package="C0603K" value="12pf" x="-0.28" y="12.18" rot="R90"/>
<element name="C38" library="resistor" package="C0603K" value="47nF" x="4.47" y="1.1" rot="R90"/>
<element name="C39" library="resistor" package="C0603K" value="0.1uF" x="-4.61" y="0.63"/>
<element name="C40" library="resistor" package="C0402K" value="2.2n" x="5.69" y="1.37" rot="R270"/>
<element name="C41" library="resistor" package="C0402K" value="3.9pF" x="6.59" y="5.09"/>
<element name="C42" library="resistor" package="C0402K" value="1pF" x="7.29" y="3.43" rot="R270"/>
<element name="C43" library="resistor" package="C0402K" value="1.5pF" x="8.79" y="3.44" rot="R270"/>
<element name="C73" library="resistor" package="C0603K" value="0.1uF" x="-7.562634375" y="3.97778125" rot="R225"/>
<element name="GND" library="testpad" package="TP20R" value="TPTP20R" x="4.47" y="-11.95">
<attribute name="TP_SIGNAL_NAME" value="" x="4.47" y="-11.95" size="1.778" layer="27" display="off"/>
</element>
<element name="K1" library="Seeed-OPL-Button" package="SW4-SMD-5.2X5.2X1.5MM" value="SKQGADE010" x="0" y="-8.94" rot="R270">
<attribute name="MPN" value="SKQGADE010" x="0" y="-8.94" size="1.778" layer="27" rot="R270" display="off"/>
</element>
<element name="L10" library="Seeed-OPL-Inductor" package="L0603" value="10uH-50MA" x="-5.17" y="5.23" rot="R90"/>
<element name="L11" library="Seeed-OPL-Inductor" package="L0402" value="15NH-300MA" x="-5.62" y="3.26">
<attribute name="MPN" value="LQG15HS4N7S02" x="-5.62" y="3.26" size="1.778" layer="27" display="off"/>
</element>
<element name="L4" library="Seeed-OPL-Inductor" package="L0402" value="4.7nH" x="4.91" y="4.6" rot="R270">
<attribute name="MPN" value="LQG15HS4N7S02" x="4.91" y="4.6" size="1.778" layer="27" rot="R270" display="off"/>
</element>
<element name="L5" library="Seeed-OPL-Inductor" package="L0402" value="27NH-300MA" x="6.01" y="3.61" rot="R270">
<attribute name="MPN" value="LQG15HS4N7S02" x="6.01" y="3.61" size="1.778" layer="27" rot="R270" display="off"/>
</element>
<element name="L6" library="Seeed-OPL-Inductor" package="L0402" value="3.3NH-300MA" x="8.65" y="5.11">
<attribute name="MPN" value="LQG15HS4N7S02" x="8.65" y="5.11" size="1.778" layer="27" display="off"/>
</element>
<element name="LED1" library="SparkFun-LED" package="LED-TRICOLOR-5050" value="LED-TRICOLOR-5050NO_IC" x="-7.25" y="-6.88" rot="R270"/>
<element name="R1" library="resistor" package="R0603" value="10k" x="-11.18" y="-1.61" rot="R270"/>
<element name="R2" library="resistor" package="R0603" value="10k" x="-4.83" y="-2.37" rot="R180"/>
<element name="R25" library="resistor" package="R0603" value="10k" x="0.04" y="-4.03"/>
<element name="R3" library="resistor" package="R0603" value="10k" x="-8.48" y="-1.6" rot="R270"/>
<element name="SWDCLK" library="testpad" package="TP20R" value="TPTP20R" x="8.6" y="-9.25">
<attribute name="TP_SIGNAL_NAME" value="" x="8.6" y="-9.25" size="1.778" layer="27" display="off"/>
</element>
<element name="SWDIO/RST" library="testpad" package="TP20R" value="TPTP20R" x="6.64" y="-10.7">
<attribute name="TP_SIGNAL_NAME" value="" x="6.64" y="-10.7" size="1.778" layer="27" display="off"/>
</element>
<element name="U$2" library="NordicSemi" package="QFN48" value="NRF51822" x="-0.3" y="4.32"/>
<element name="Y2" library="KX-7" package="KX-07" value="KX-07" x="2.51" y="12.17"/>
<element name="U$1" library="CRYSTALL_32KHZ" package="CRYSTALL_32KHZ" value="CRYSTALL_32KHZ" x="-6.8" y="9.55" rot="R45"/>
</elements>
<signals>
<signal name="GND">
<contactref element="C30" pad="1"/>
<contactref element="C29" pad="1"/>
<contactref element="C31" pad="1"/>
<contactref element="U$2" pad="33"/>
<contactref element="U$2" pad="34"/>
<contactref element="C38" pad="1"/>
<contactref element="C32" pad="1"/>
<contactref element="C39" pad="1"/>
<contactref element="U$2" pad="13"/>
<contactref element="U$2" pad="GND"/>
<contactref element="C34" pad="2"/>
<contactref element="C36" pad="2"/>
<contactref element="C35" pad="1"/>
<contactref element="C42" pad="2"/>
<contactref element="C43" pad="2"/>
<contactref element="C37" pad="2"/>
<contactref element="C40" pad="2"/>
<contactref element="C73" pad="2"/>
<contactref element="GND" pad="TP"/>
<contactref element="K1" pad="3"/>
<contactref element="K1" pad="4"/>
<contactref element="LED1" pad="5"/>
<contactref element="LED1" pad="6"/>
<contactref element="LED1" pad="4"/>
<contactref element="BAT1" pad="2"/>
<wire x1="5.33" y1="8.005" x2="5.165" y2="7.84" width="0.2" layer="1"/>
<wire x1="-1.85" y1="-5.84" x2="-1.85" y2="-9.95" width="0.2" layer="1"/>
<wire x1="-1.85" y1="-9.95" x2="-1.85" y2="-12.04" width="0.2" layer="1"/>
<wire x1="-2.5" y1="1.15" x2="-2.5" y2="2.12" width="0.2" layer="1"/>
<wire x1="-2.5" y1="2.12" x2="-0.3" y2="4.32" width="0.2" layer="1"/>
<wire x1="-0.3" y1="4.32" x2="0.7" y2="5.32" width="0.2" layer="1"/>
<wire x1="0.7" y1="5.32" x2="2.87" y2="5.32" width="0.2" layer="1"/>
<wire x1="2.87" y1="5.32" x2="2.87" y2="5.72" width="0.2" layer="1"/>
<wire x1="2.87" y1="5.72" x2="5.165" y2="5.72" width="0.2" layer="1"/>
<wire x1="5.165" y1="5.72" x2="5.165" y2="7.84" width="0.2" layer="1"/>
<wire x1="7.29" y1="2.83" x2="8.78" y2="2.83" width="0.2" layer="1"/>
<wire x1="8.78" y1="2.83" x2="8.79" y2="2.84" width="0.2" layer="1"/>
<wire x1="7.29" y1="2.83" x2="7.29" y2="0.77" width="0.2" layer="1"/>
<wire x1="7.29" y1="0.77" x2="5.69" y2="0.77" width="0.2" layer="1"/>
<wire x1="-8.95" y1="-9.28" x2="-7.25" y2="-9.28" width="0.2" layer="1"/>
<wire x1="-7.25" y1="-9.28" x2="-5.55" y2="-9.28" width="0.2" layer="1"/>
<wire x1="-5.485" y1="0.63" x2="-5.485" y2="-0.485" width="0.2" layer="1"/>
<wire x1="-5.485" y1="-0.485" x2="-5.55" y2="-0.55" width="0.2" layer="1"/>
<via x="-5.55" y="-0.55" extent="1-16" drill="0.4"/>
<wire x1="-5.55" y1="-0.55" x2="-2.15" y2="-0.55" width="0.2" layer="16"/>
<wire x1="-2.15" y1="-0.55" x2="-0.56" y2="-0.55" width="0.2" layer="16"/>
<wire x1="-0.56" y1="-0.55" x2="0" y2="0.01" width="0.2" layer="16"/>
<wire x1="-2.5" y1="1.15" x2="-2.5" y2="2.15" width="0.2" layer="1"/>
<wire x1="-2.5" y1="2.15" x2="-0.3" y2="4.35" width="0.2" layer="1"/>
<via x="-0.3" y="4.35" extent="1-16" drill="0.4"/>
<wire x1="-0.3" y1="4.35" x2="-0.3" y2="3.65" width="0.2" layer="16"/>
<wire x1="-0.3" y1="3.65" x2="-0.3" y2="0.31" width="0.2" layer="16"/>
<wire x1="-0.3" y1="0.31" x2="0" y2="0.01" width="0.2" layer="16"/>
<wire x1="-8.18135" y1="3.3590625" x2="-8.0590625" y2="3.3590625" width="0.2" layer="1"/>
<via x="-7.1" y="2.7" extent="1-16" drill="0.4"/>
<wire x1="-7.1" y1="2.7" x2="-1.25" y2="2.7" width="0.2" layer="16"/>
<wire x1="-1.25" y1="2.7" x2="-0.3" y2="3.65" width="0.2" layer="16"/>
<wire x1="-1.56" y1="13.055" x2="-1.9" y2="12.715" width="0.2" layer="1"/>
<wire x1="4.47" y1="0.225" x2="5.145" y2="0.225" width="0.2" layer="1"/>
<wire x1="5.145" y1="0.225" x2="5.69" y2="0.77" width="0.2" layer="1"/>
<wire x1="7.29" y1="2.83" x2="7.29" y2="0.84" width="0.2" layer="1"/>
<wire x1="7.29" y1="0.84" x2="5.7" y2="-0.75" width="0.2" layer="1"/>
<via x="5.7" y="-0.75" extent="1-16" drill="0.4"/>
<wire x1="5.7" y1="-0.75" x2="0.76" y2="-0.75" width="0.2" layer="16"/>
<wire x1="0.76" y1="-0.75" x2="0" y2="0.01" width="0.2" layer="16"/>
<wire x1="-7.1" y1="2.7" x2="-8.18135" y2="2.7" width="0.2" layer="1"/>
<wire x1="-8.18135" y1="2.7" x2="-8.18135" y2="3.3590625" width="0.2" layer="1"/>
<wire x1="-8.18135" y1="3.3590625" x2="-8.18135" y2="4.002328125" width="0.2" layer="1"/>
<wire x1="-8.18135" y1="4.002328125" x2="-9.057540625" y2="4.87851875" width="0.2" layer="1"/>
<wire x1="-3.512553125" y1="12.715" x2="-3.5313375" y2="12.696215625" width="0.2" layer="1"/>
<wire x1="5.43" y1="9.565" x2="5.43" y2="8.105" width="0.2" layer="1"/>
<wire x1="5.43" y1="8.105" x2="5.165" y2="7.84" width="0.2" layer="1"/>
<wire x1="-0.805" y1="-2.48" x2="-2.43" y2="-2.48" width="0.2" layer="1"/>
<wire x1="-2.43" y1="-2.48" x2="-2.7" y2="-2.75" width="0.2" layer="1"/>
<via x="-2.7" y="-2.75" extent="1-16" drill="0.4"/>
<wire x1="-2.7" y1="-2.75" x2="-2.7" y2="-1.1" width="0.2" layer="16"/>
<wire x1="-2.7" y1="-1.1" x2="-2.15" y2="-0.55" width="0.2" layer="16"/>
<wire x1="-5.55" y1="-9.28" x2="-2.7" y2="-6.43" width="0.4064" layer="1"/>
<wire x1="-2.7" y1="-6.43" x2="-2.7" y2="-5.85" width="0.4064" layer="1"/>
<wire x1="-2.7" y1="-5.85" x2="-2.7" y2="-2.75" width="0.4064" layer="1"/>
<wire x1="-1.85" y1="-5.84" x2="-1.86" y2="-5.85" width="0.4064" layer="1"/>
<wire x1="-1.86" y1="-5.85" x2="-2.7" y2="-5.85" width="0.4064" layer="1"/>
<wire x1="4.47" y1="-11.95" x2="2.47" y2="-9.95" width="0.2" layer="1"/>
<wire x1="2.47" y1="-9.95" x2="-1.85" y2="-9.95" width="0.2" layer="1"/>
<wire x1="-0.28" y1="13.055" x2="-0.62" y2="12.715" width="0.6096" layer="1"/>
<wire x1="-0.62" y1="12.715" x2="-1.9" y2="12.715" width="0.6096" layer="1"/>
<wire x1="-1.9" y1="12.715" x2="-1.918784375" y2="12.696215625" width="0.6096" layer="1"/>
<wire x1="-1.918784375" y1="12.696215625" x2="-3.5313375" y2="12.696215625" width="0.6096" layer="1"/>
<wire x1="-3.5313375" y1="12.696215625" x2="-5.703784375" y2="12.696215625" width="0.6096" layer="1"/>
<wire x1="-5.703784375" y1="12.696215625" x2="-11.35" y2="7.05" width="0.6096" layer="1"/>
<wire x1="-11.35" y1="7.05" x2="-11.35" y2="4.87851875" width="0.6096" layer="1"/>
<wire x1="-11.35" y1="4.87851875" x2="-9.057540625" y2="4.87851875" width="0.6096" layer="1"/>
<wire x1="-5.285" y1="7.65" x2="-6.286059375" y2="7.65" width="0.4064" layer="1"/>
<wire x1="-6.286059375" y1="7.65" x2="-9.057540625" y2="4.87851875" width="0.4064" layer="1"/>
</signal>
<signal name="N$30">
<contactref element="C35" pad="2"/>
<contactref element="U$2" pad="39"/>
<wire x1="1.1" y1="7.49" x2="1.1" y2="10.2" width="0.2" layer="1"/>
<wire x1="1.1" y1="10.2" x2="-1.135" y2="10.2" width="0.2" layer="1"/>
<wire x1="-1.135" y1="10.2" x2="-1.9" y2="10.965" width="0.2" layer="1"/>
</signal>
<signal name="N$31">
<contactref element="Y2" pad="P1"/>
<contactref element="C37" pad="1"/>
<contactref element="U$2" pad="38"/>
<wire x1="1.5" y1="7.49" x2="1.5" y2="11.18" width="0.2" layer="1"/>
<wire x1="1.5" y1="11.18" x2="1.36" y2="11.32" width="0.2" layer="1"/>
<wire x1="1.36" y1="11.32" x2="-0.265" y2="11.32" width="0.2" layer="1"/>
<wire x1="-0.265" y1="11.32" x2="-0.28" y2="11.305" width="0.2" layer="1"/>
</signal>
<signal name="N$32">
<contactref element="Y2" pad="P3"/>
<contactref element="C36" pad="1"/>
<contactref element="U$2" pad="37"/>
<wire x1="1.9" y1="7.49" x2="1.9" y2="9.8" width="0.2" layer="1"/>
<wire x1="1.9" y1="9.8" x2="2.55" y2="10.45" width="0.2" layer="1"/>
<wire x1="2.55" y1="10.45" x2="2.55" y2="12.65" width="0.2" layer="1"/>
<wire x1="2.55" y1="12.65" x2="3.05" y2="13.15" width="0.2" layer="1"/>
<wire x1="3.05" y1="13.15" x2="3.63" y2="13.15" width="0.2" layer="1"/>
<wire x1="3.63" y1="13.15" x2="3.66" y2="13.12" width="0.2" layer="1"/>
<wire x1="5.43" y1="11.315" x2="5.43" y2="11.97" width="0.2" layer="1"/>
<wire x1="5.43" y1="11.97" x2="4.55" y2="12.85" width="0.2" layer="1"/>
<wire x1="4.55" y1="12.85" x2="3.93" y2="12.85" width="0.2" layer="1"/>
<wire x1="3.93" y1="12.85" x2="3.66" y2="13.12" width="0.2" layer="1"/>
</signal>
<signal name="N$33">
<contactref element="C38" pad="2"/>
<contactref element="U$2" pad="29"/>
<wire x1="2.87" y1="3.72" x2="3.68" y2="3.72" width="0.2" layer="1"/>
<wire x1="3.68" y1="3.72" x2="4.1" y2="3.3" width="0.2" layer="1"/>
<wire x1="4.1" y1="3.3" x2="4.1" y2="2.345" width="0.2" layer="1"/>
<wire x1="4.1" y1="2.345" x2="4.47" y2="1.975" width="0.2" layer="1"/>
</signal>
<signal name="N$35">
<contactref element="C30" pad="2"/>
<contactref element="U$2" pad="46"/>
<contactref element="U$1" pad="P2"/>
<wire x1="-1.7" y1="7.49" x2="-1.7" y2="10" width="0.2" layer="1"/>
<wire x1="-1.7" y1="10" x2="-3.5313375" y2="10" width="0.2" layer="1"/>
<wire x1="-3.65" y1="10" x2="-5.95" y2="10" width="0.2" layer="1"/>
<wire x1="-5.95" y1="10" x2="-5.95" y2="10.610659375" width="0.2" layer="1"/>
<wire x1="-5.95" y1="10.610659375" x2="-5.7393375" y2="10.610659375" width="0.2" layer="1"/>
<wire x1="-3.5313375" y1="10.946215625" x2="-3.5313375" y2="10" width="0.2" layer="1"/>
<wire x1="-3.5313375" y1="10" x2="-3.65" y2="10" width="0.2" layer="1"/>
</signal>
<signal name="N$37">
<contactref element="L4" pad="1"/>
<contactref element="C41" pad="1"/>
<contactref element="U$2" pad="32"/>
<wire x1="2.87" y1="4.92" x2="4.91" y2="4.92" width="0.2" layer="1"/>
<wire x1="4.91" y1="4.92" x2="4.91" y2="5.0445" width="0.2" layer="1"/>
<wire x1="4.91" y1="5.0445" x2="5.99" y2="5.0445" width="0.2" layer="1"/>
<wire x1="5.99" y1="5.0445" x2="5.99" y2="5.09" width="0.2" layer="1"/>
</signal>
<signal name="N$38">
<contactref element="L4" pad="2"/>
<contactref element="L5" pad="1"/>
<contactref element="U$2" pad="31"/>
<wire x1="2.87" y1="4.52" x2="4.5455" y2="4.52" width="0.2" layer="1"/>
<wire x1="4.91" y1="4.15" x2="4.91" y2="4.1555" width="0.2" layer="1"/>
<wire x1="4.91" y1="4.15" x2="6.01" y2="4.15" width="0.2" layer="1"/>
<wire x1="6.01" y1="4.15" x2="6.01" y2="4.0545" width="0.2" layer="1"/>
<wire x1="4.5455" y1="4.52" x2="4.91" y2="4.1555" width="0.2" layer="1"/>
</signal>
<signal name="N$39">
<contactref element="L5" pad="2"/>
<contactref element="C40" pad="1"/>
<contactref element="U$2" pad="30"/>
<wire x1="2.87" y1="4.12" x2="4.05" y2="4.12" width="0.2" layer="1"/>
<wire x1="6.01" y1="3.35" x2="6.01" y2="3.1655" width="0.2" layer="1"/>
<wire x1="6.01" y1="3.1655" x2="5.69" y2="3.1655" width="0.2" layer="1"/>
<wire x1="5.69" y1="3.1655" x2="5.69" y2="1.97" width="0.2" layer="1"/>
<wire x1="4.05" y1="4.12" x2="4.05" y2="3.9" width="0.2" layer="1"/>
<wire x1="4.05" y1="3.9" x2="4.6" y2="3.35" width="0.2" layer="1"/>
<wire x1="4.6" y1="3.35" x2="5.8255" y2="3.35" width="0.2" layer="1"/>
<wire x1="5.8255" y1="3.35" x2="6.01" y2="3.1655" width="0.2" layer="1"/>
</signal>
<signal name="N$40">
<contactref element="C41" pad="2"/>
<contactref element="L6" pad="1"/>
<contactref element="C42" pad="1"/>
<wire x1="7.19" y1="5.09" x2="8.2055" y2="5.09" width="0.2" layer="1"/>
<wire x1="8.2055" y1="5.09" x2="8.2055" y2="5.11" width="0.2" layer="1"/>
<wire x1="7.29" y1="4.03" x2="7.19" y2="4.03" width="0.2" layer="1"/>
<wire x1="7.19" y1="4.03" x2="7.19" y2="5.09" width="0.2" layer="1"/>
</signal>
<signal name="N$41">
<contactref element="L6" pad="2"/>
<contactref element="C43" pad="1"/>
<contactref element="ANT1" pad="2"/>
<wire x1="8.79" y1="4.04" x2="9.0945" y2="4.04" width="0.2" layer="1"/>
<wire x1="9.0945" y1="4.04" x2="9.0945" y2="5.11" width="0.2" layer="1"/>
<wire x1="9.0945" y1="4.04" x2="9.3" y2="4.2455" width="0.4064" layer="1"/>
<wire x1="9.3" y1="4.2455" x2="9.3" y2="5.2" width="0.4064" layer="1"/>
<wire x1="9.3" y1="5.2" x2="9.532340625" y2="4.967659375" width="0.4064" layer="1"/>
<wire x1="9.532340625" y1="4.967659375" x2="11.321678125" y2="4.967659375" width="0.4064" layer="1"/>
</signal>
<signal name="N$42">
<contactref element="U$2" pad="23"/>
<contactref element="SWDIO/RST" pad="TP"/>
<wire x1="1.5" y1="1.15" x2="1.5" y2="-0.85" width="0.2" layer="1"/>
<wire x1="1.5" y1="-0.85" x2="6.6" y2="-5.95" width="0.2" layer="1"/>
<wire x1="6.6" y1="-5.95" x2="6.6" y2="-10.66" width="0.2" layer="1"/>
<wire x1="6.6" y1="-10.66" x2="6.64" y2="-10.7" width="0.2" layer="1"/>
</signal>
<signal name="N$43">
<contactref element="U$2" pad="24"/>
<contactref element="SWDCLK" pad="TP"/>
<wire x1="8.6" y1="-9.25" x2="8.6" y2="-7" width="0.2" layer="1"/>
<wire x1="8.6" y1="-7" x2="1.9" y2="-0.3" width="0.2" layer="1"/>
<wire x1="1.9" y1="-0.3" x2="1.9" y2="1.15" width="0.2" layer="1"/>
</signal>
<signal name="CS_DSP1">
<contactref element="U$2" pad="9"/>
</signal>
<signal name="N$26">
<contactref element="U$2" pad="2"/>
<contactref element="L10" pad="2"/>
<wire x1="-3.47" y1="6.12" x2="-5.17" y2="6.12" width="0.2" layer="1"/>
<wire x1="-5.17" y1="6.12" x2="-5.17" y2="5.992" width="0.2" layer="1"/>
</signal>
<signal name="N$28">
<contactref element="L10" pad="1"/>
<contactref element="L11" pad="2"/>
<wire x1="-5.17" y1="4.468" x2="-5.1755" y2="4.468" width="0.2" layer="1"/>
<wire x1="-5.1755" y1="4.468" x2="-5.1755" y2="3.26" width="0.2" layer="1"/>
</signal>
<signal name="AVDD">
<contactref element="L11" pad="1"/>
<contactref element="C73" pad="1"/>
<contactref element="C31" pad="2"/>
<contactref element="U$2" pad="35"/>
<contactref element="U$2" pad="36"/>
<wire x1="-6.0645" y1="3.26" x2="-6.16" y2="3.26" width="0.2" layer="1"/>
<wire x1="-6.16" y1="3.26" x2="-6.95" y2="4.05" width="0.2" layer="1"/>
<wire x1="-6.95" y1="4.05" x2="-6.95" y2="4.5904125" width="0.2" layer="1"/>
<wire x1="-6.95" y1="4.5904125" x2="-6.943915625" y2="4.596496875" width="0.2" layer="1"/>
<wire x1="2.87" y1="6.12" x2="2.87" y2="6.52" width="0.2" layer="1"/>
<wire x1="2.87" y1="6.52" x2="4.23" y2="6.52" width="0.2" layer="1"/>
<wire x1="4.23" y1="6.52" x2="4.25" y2="6.5" width="0.2" layer="1"/>
<via x="4.25" y="6.5" extent="1-16" drill="0.4"/>
<wire x1="4.25" y1="6.5" x2="-6.2" y2="6.5" width="0.2" layer="16"/>
<wire x1="-6.2" y1="6.5" x2="-6.75" y2="5.95" width="0.2" layer="16"/>
<via x="-6.75" y="5.95" extent="1-16" drill="0.4"/>
<wire x1="-6.75" y1="5.95" x2="-6.75" y2="4.7904125" width="0.2" layer="1"/>
<wire x1="-6.75" y1="4.7904125" x2="-6.943915625" y2="4.596496875" width="0.2" layer="1"/>
<wire x1="3.415" y1="7.84" x2="2.87" y2="7.295" width="0.2" layer="1"/>
<wire x1="2.87" y1="7.295" x2="2.87" y2="6.52" width="0.2" layer="1"/>
</signal>
<signal name="NRF_VDD">
<contactref element="C32" pad="2"/>
<contactref element="U$2" pad="1"/>
<contactref element="BAT1" pad="1"/>
<contactref element="C39" pad="2"/>
<contactref element="U$2" pad="12"/>
<contactref element="R25" pad="1"/>
<contactref element="+3.3V" pad="TP"/>
<wire x1="-3.735" y1="0.63" x2="-3.47" y2="0.63" width="0.2" layer="1"/>
<wire x1="-3.47" y1="0.63" x2="-3.47" y2="2.12" width="0.2" layer="1"/>
<wire x1="-3.735" y1="0.63" x2="-3.82" y2="0.63" width="0.2" layer="1"/>
<wire x1="-3.535" y1="7.65" x2="-3.47" y2="7.585" width="0.2" layer="1"/>
<wire x1="-3.47" y1="7.585" x2="-3.47" y2="6.52" width="0.2" layer="1"/>
<wire x1="-0.81" y1="-4.03" x2="-0.81" y2="-4.69" width="0.2" layer="1"/>
<wire x1="-0.81" y1="-4.69" x2="0.2" y2="-5.7" width="0.2" layer="1"/>
<wire x1="0.2" y1="-5.7" x2="0.2" y2="-8.15" width="0.2" layer="1"/>
<wire x1="0.2" y1="-8.15" x2="0.15" y2="-8.2" width="0.2" layer="1"/>
<via x="0.15" y="-8.2" extent="1-16" drill="0.4"/>
<wire x1="0.15" y1="-8.2" x2="3.1" y2="-8.2" width="0.2" layer="16"/>
<wire x1="3.1" y1="-8.2" x2="6.05" y2="-5.25" width="0.2" layer="16"/>
<wire x1="6.05" y1="-5.25" x2="6.05" y2="-4" width="0.2" layer="16"/>
<wire x1="6.05" y1="-4" x2="6.05" y2="-3.5" width="0.2" layer="16"/>
<wire x1="6.05" y1="-3.5" x2="8.9" y2="-0.65" width="0.2" layer="16"/>
<wire x1="8.9" y1="-0.65" x2="8.9" y2="-0.54" width="0.2" layer="16"/>
<wire x1="8.9" y1="-0.54" x2="11" y2="1.56" width="0.2" layer="16"/>
<wire x1="-10.9" y1="2.12" x2="-10.9" y2="2.25" width="0.2" layer="1"/>
<via x="-10.9" y="2.25" extent="1-16" drill="0.4"/>
<via x="-3.55" y="8.9" extent="1-16" drill="0.4"/>
<wire x1="-3.55" y1="8.9" x2="-3.535" y2="8.885" width="0.2" layer="1"/>
<wire x1="-3.535" y1="8.885" x2="-3.535" y2="7.65" width="0.2" layer="1"/>
<wire x1="11" y1="1.56" x2="3.66" y2="8.9" width="0.4064" layer="16"/>
<wire x1="3.66" y1="8.9" x2="-3.55" y2="8.9" width="0.4064" layer="16"/>
<wire x1="-3.47" y1="2.12" x2="-5.98" y2="2.12" width="0.2" layer="1"/>
<wire x1="-5.98" y1="2.12" x2="-6.15" y2="1.95" width="0.2" layer="1"/>
<wire x1="-6.15" y1="1.95" x2="-10.6" y2="1.95" width="0.2" layer="1"/>
<wire x1="-10.6" y1="1.95" x2="-10.9" y2="2.25" width="0.2" layer="1"/>
<wire x1="-3.55" y1="8.9" x2="-5.5" y2="8.9" width="0.4064" layer="16"/>
<wire x1="-5.5" y1="8.9" x2="-9.3" y2="5.1" width="0.4064" layer="16"/>
<wire x1="-9.3" y1="5.1" x2="-9.3" y2="3.85" width="0.4064" layer="16"/>
<wire x1="-9.3" y1="3.85" x2="-10.9" y2="2.25" width="0.4064" layer="16"/>
<wire x1="10.4" y1="-7.45" x2="7.3" y2="-4.35" width="0.2" layer="1"/>
<wire x1="7.3" y1="-4.35" x2="7.3" y2="-4.2" width="0.2" layer="1"/>
<via x="7.3" y="-4.2" extent="1-16" drill="0.4"/>
<wire x1="7.3" y1="-4.2" x2="7.1" y2="-4" width="0.2" layer="16"/>
<wire x1="7.1" y1="-4" x2="6.05" y2="-4" width="0.2" layer="16"/>
</signal>
<signal name="N$71">
<contactref element="R25" pad="2"/>
<contactref element="C34" pad="1"/>
<contactref element="K1" pad="2"/>
<contactref element="K1" pad="1"/>
<contactref element="U$2" pad="17"/>
<wire x1="-0.9" y1="1.15" x2="-0.9" y2="-0.635" width="0.2" layer="1"/>
<wire x1="-0.9" y1="-0.635" x2="0.945" y2="-2.48" width="0.2" layer="1"/>
<wire x1="1.85" y1="-5.84" x2="1.85" y2="-12.04" width="0" layer="19" extent="1-1"/>
<wire x1="0.89" y1="-4.03" x2="0.89" y2="-2.535" width="0.2" layer="1"/>
<wire x1="0.89" y1="-2.535" x2="0.945" y2="-2.48" width="0.2" layer="1"/>
<wire x1="0.89" y1="-4.03" x2="0.89" y2="-4.88" width="0.2" layer="1"/>
<wire x1="0.89" y1="-4.88" x2="1.85" y2="-5.84" width="0.2" layer="1"/>
</signal>
<signal name="N$3">
<contactref element="R2" pad="1"/>
<contactref element="U$2" pad="16"/>
<wire x1="-1.3" y1="1.15" x2="-1.3" y2="-1.4" width="0.2" layer="1"/>
<wire x1="-1.3" y1="-1.4" x2="-3.7" y2="-1.4" width="0.2" layer="1"/>
<wire x1="-3.7" y1="-1.4" x2="-3.7" y2="-2.37" width="0.2" layer="1"/>
<wire x1="-3.7" y1="-2.37" x2="-3.98" y2="-2.37" width="0.2" layer="1"/>
</signal>
<signal name="N$2">
<contactref element="R1" pad="2"/>
<contactref element="LED1" pad="3"/>
<wire x1="-8.95" y1="-4.48" x2="-11.18" y2="-4.48" width="0.2" layer="1"/>
<wire x1="-11.18" y1="-4.48" x2="-11.18" y2="-2.46" width="0.2" layer="1"/>
</signal>
<signal name="N$4">
<contactref element="R2" pad="2"/>
<contactref element="LED1" pad="1"/>
<wire x1="-5.55" y1="-4.48" x2="-5.55" y2="-2.5" width="0.2" layer="1"/>
<wire x1="-5.55" y1="-2.5" x2="-5.68" y2="-2.37" width="0.2" layer="1"/>
</signal>
<signal name="N$7">
<contactref element="R3" pad="2"/>
<contactref element="LED1" pad="2"/>
<wire x1="-7.25" y1="-4.48" x2="-7.25" y2="-3.68" width="0.2" layer="1"/>
<wire x1="-7.25" y1="-3.68" x2="-8.48" y2="-2.45" width="0.2" layer="1"/>
</signal>
<signal name="N$6">
<contactref element="R1" pad="1"/>
<contactref element="U$2" pad="14"/>
<wire x1="-2.1" y1="1.15" x2="-2.1" y2="-0.45" width="0.2" layer="1"/>
<wire x1="-2.1" y1="-0.45" x2="-4.6" y2="-0.45" width="0.2" layer="1"/>
<wire x1="-4.6" y1="-0.45" x2="-4.6" y2="1.5" width="0.2" layer="1"/>
<wire x1="-4.6" y1="1.5" x2="-8.92" y2="1.5" width="0.2" layer="1"/>
<wire x1="-8.92" y1="1.5" x2="-11.18" y2="-0.76" width="0.2" layer="1"/>
</signal>
<signal name="N$8">
<contactref element="U$2" pad="15"/>
<contactref element="R3" pad="1"/>
<wire x1="-1.7" y1="1.15" x2="-1.7" y2="-0.9" width="0.2" layer="1"/>
<wire x1="-1.7" y1="-0.9" x2="-4.4" y2="-0.9" width="0.2" layer="1"/>
<wire x1="-4.4" y1="-0.9" x2="-4.4" y2="-1.3" width="0.2" layer="1"/>
<wire x1="-4.4" y1="-1.3" x2="-7.55" y2="-1.3" width="0.2" layer="1"/>
<wire x1="-7.55" y1="-1.3" x2="-7.55" y2="-0.75" width="0.2" layer="1"/>
<wire x1="-7.55" y1="-0.75" x2="-8.48" y2="-0.75" width="0.2" layer="1"/>
</signal>
<signal name="N$1">
<contactref element="C29" pad="2"/>
<contactref element="U$1" pad="P1"/>
<contactref element="U$2" pad="47"/>
<wire x1="-2.1" y1="7.49" x2="-2.1" y2="9.55" width="0.2" layer="1"/>
<wire x1="-2.1" y1="9.55" x2="-4.45" y2="9.55" width="0.2" layer="1"/>
<wire x1="-4.45" y1="9.55" x2="-5.2" y2="8.8" width="0.2" layer="1"/>
<wire x1="-5.2" y1="8.8" x2="-7.549996875" y2="8.8" width="0.2" layer="1"/>
<wire x1="-7.549996875" y1="8.8" x2="-7.860659375" y2="8.4893375" width="0.2" layer="1"/>
<wire x1="-7.860659375" y1="8.4893375" x2="-7.860659375" y2="7.8254" width="0.2" layer="1"/>
<wire x1="-7.860659375" y1="7.8254" x2="-9.057540625" y2="6.62851875" width="0.2" layer="1"/>
</signal>
</signals>
</board>
</drawing>
</eagle>
